EESchema Schematic File Version 2
LIBS:WhiteFox-rescue
LIBS:WhiteFox
LIBS:device
LIBS:WhiteFox-cache
EELAYER 25 0
EELAYER END
$Descr A4 11693 8268
encoding utf-8
Sheet 3 3
Title "WhiteFox"
Date "2016-06-11"
Rev "1.02a"
Comp "Input Club"
Comment1 ""
Comment2 ""
Comment3 ""
Comment4 ""
$EndDescr
Text HLabel 1400 2600 0    60   BiDi ~ 0
SW12
Text HLabel 1400 2700 0    60   BiDi ~ 0
SW11
Text HLabel 1400 2800 0    60   BiDi ~ 0
SW10
Text HLabel 1400 3300 0    60   BiDi ~ 0
SW9
Text HLabel 1400 3400 0    60   BiDi ~ 0
SW8
Text HLabel 1400 3500 0    60   BiDi ~ 0
SW7
Text HLabel 1400 4000 0    60   BiDi ~ 0
SW6
Text HLabel 1400 4100 0    60   BiDi ~ 0
SW5
Text HLabel 1400 4200 0    60   BiDi ~ 0
SW4
Text HLabel 1400 4700 0    60   BiDi ~ 0
SW3
Text HLabel 1400 4800 0    60   BiDi ~ 0
SW2
Text HLabel 1400 4900 0    60   BiDi ~ 0
SW1
Text HLabel 2000 2050 1    60   BiDi ~ 0
CS1
$Comp
L LED_RGB-RESCUE-WhiteFox LED1
U 1 1 58177DDE
P 1800 2350
AR Path="/58177DDE" Ref="LED1"  Part="1" 
AR Path="/54B2C0DD/58177DDE" Ref="LED1"  Part="1" 
F 0 "LED1" H 1800 2550 50  0000 C CNN
F 1 "LED_RGB" H 1800 2150 50  0000 C CNN
F 2 "lib.pretty:LED_RGB_6028" H 1800 2350 60  0001 C CNN
F 3 "" H 1800 2350 60  0000 C CNN
	1    1800 2350
	-1   0    0    1   
$EndComp
$Comp
L LED_RGB-RESCUE-WhiteFox LED2
U 1 1 58178C47
P 2400 2350
AR Path="/58178C47" Ref="LED2"  Part="1" 
AR Path="/54B2C0DD/58178C47" Ref="LED2"  Part="1" 
F 0 "LED2" H 2400 2550 50  0000 C CNN
F 1 "LED_RGB" H 2400 2150 50  0000 C CNN
F 2 "lib.pretty:LED_RGB_6028" H 2400 2350 60  0001 C CNN
F 3 "" H 2400 2350 60  0000 C CNN
	1    2400 2350
	-1   0    0    1   
$EndComp
Text HLabel 2600 2050 1    60   BiDi ~ 0
CS2
Text HLabel 3200 2050 1    60   BiDi ~ 0
CS3
Text HLabel 3800 2050 1    60   BiDi ~ 0
CS4
Text HLabel 4400 2050 1    60   BiDi ~ 0
CS5
Text HLabel 5600 2050 1    60   BiDi ~ 0
CS7
Text HLabel 6200 2050 1    60   BiDi ~ 0
CS8
Text HLabel 6800 2050 1    60   BiDi ~ 0
CS9
Text HLabel 7400 2050 1    60   BiDi ~ 0
CS10
Text HLabel 8000 2050 1    60   BiDi ~ 0
CS11
Text HLabel 8600 2050 1    60   BiDi ~ 0
CS12
Text HLabel 9200 2050 1    60   BiDi ~ 0
CS13
Text HLabel 9800 2050 1    60   BiDi ~ 0
CS14
Text HLabel 10400 2050 1    60   BiDi ~ 0
CS15
Text HLabel 11000 2050 1    60   BiDi ~ 0
CS16
$Comp
L LED_RGB-RESCUE-WhiteFox LED3
U 1 1 5818A379
P 3000 2350
AR Path="/5818A379" Ref="LED3"  Part="1" 
AR Path="/54B2C0DD/5818A379" Ref="LED3"  Part="1" 
F 0 "LED3" H 3000 2550 50  0000 C CNN
F 1 "LED_RGB" H 3000 2150 50  0000 C CNN
F 2 "lib.pretty:LED_RGB_6028" H 3000 2350 60  0001 C CNN
F 3 "" H 3000 2350 60  0000 C CNN
	1    3000 2350
	-1   0    0    1   
$EndComp
$Comp
L LED_RGB-RESCUE-WhiteFox LED4
U 1 1 5818A382
P 3600 2350
AR Path="/5818A382" Ref="LED4"  Part="1" 
AR Path="/54B2C0DD/5818A382" Ref="LED4"  Part="1" 
F 0 "LED4" H 3600 2550 50  0000 C CNN
F 1 "LED_RGB" H 3600 2150 50  0000 C CNN
F 2 "lib.pretty:LED_RGB_6028" H 3600 2350 60  0001 C CNN
F 3 "" H 3600 2350 60  0000 C CNN
	1    3600 2350
	-1   0    0    1   
$EndComp
$Comp
L LED_RGB-RESCUE-WhiteFox LED5
U 1 1 5818A5A1
P 4200 2350
AR Path="/5818A5A1" Ref="LED5"  Part="1" 
AR Path="/54B2C0DD/5818A5A1" Ref="LED5"  Part="1" 
F 0 "LED5" H 4200 2550 50  0000 C CNN
F 1 "LED_RGB" H 4200 2150 50  0000 C CNN
F 2 "lib.pretty:LED_RGB_6028" H 4200 2350 60  0001 C CNN
F 3 "" H 4200 2350 60  0000 C CNN
	1    4200 2350
	-1   0    0    1   
$EndComp
$Comp
L LED_RGB-RESCUE-WhiteFox LED6
U 1 1 5818A5AA
P 4800 2350
AR Path="/5818A5AA" Ref="LED6"  Part="1" 
AR Path="/54B2C0DD/5818A5AA" Ref="LED6"  Part="1" 
F 0 "LED6" H 4800 2550 50  0000 C CNN
F 1 "LED_RGB" H 4800 2150 50  0000 C CNN
F 2 "lib.pretty:LED_RGB_6028" H 4800 2350 60  0001 C CNN
F 3 "" H 4800 2350 60  0000 C CNN
	1    4800 2350
	-1   0    0    1   
$EndComp
$Comp
L LED_RGB-RESCUE-WhiteFox LED7
U 1 1 5818A5B9
P 5400 2350
AR Path="/5818A5B9" Ref="LED7"  Part="1" 
AR Path="/54B2C0DD/5818A5B9" Ref="LED7"  Part="1" 
F 0 "LED7" H 5400 2550 50  0000 C CNN
F 1 "LED_RGB" H 5400 2150 50  0000 C CNN
F 2 "lib.pretty:LED_RGB_6028" H 5400 2350 60  0001 C CNN
F 3 "" H 5400 2350 60  0000 C CNN
	1    5400 2350
	-1   0    0    1   
$EndComp
$Comp
L LED_RGB-RESCUE-WhiteFox LED8
U 1 1 5818A5C2
P 6000 2350
AR Path="/5818A5C2" Ref="LED8"  Part="1" 
AR Path="/54B2C0DD/5818A5C2" Ref="LED8"  Part="1" 
F 0 "LED8" H 6000 2550 50  0000 C CNN
F 1 "LED_RGB" H 6000 2150 50  0000 C CNN
F 2 "lib.pretty:LED_RGB_6028" H 6000 2350 60  0001 C CNN
F 3 "" H 6000 2350 60  0000 C CNN
	1    6000 2350
	-1   0    0    1   
$EndComp
$Comp
L LED_RGB-RESCUE-WhiteFox LED9
U 1 1 5818A98D
P 6600 2350
AR Path="/5818A98D" Ref="LED9"  Part="1" 
AR Path="/54B2C0DD/5818A98D" Ref="LED9"  Part="1" 
F 0 "LED9" H 6600 2550 50  0000 C CNN
F 1 "LED_RGB" H 6600 2150 50  0000 C CNN
F 2 "lib.pretty:LED_RGB_6028" H 6600 2350 60  0001 C CNN
F 3 "" H 6600 2350 60  0000 C CNN
	1    6600 2350
	-1   0    0    1   
$EndComp
$Comp
L LED_RGB-RESCUE-WhiteFox LED10
U 1 1 5818A996
P 7200 2350
AR Path="/5818A996" Ref="LED10"  Part="1" 
AR Path="/54B2C0DD/5818A996" Ref="LED10"  Part="1" 
F 0 "LED10" H 7200 2550 50  0000 C CNN
F 1 "LED_RGB" H 7200 2150 50  0000 C CNN
F 2 "lib.pretty:LED_RGB_6028" H 7200 2350 60  0001 C CNN
F 3 "" H 7200 2350 60  0000 C CNN
	1    7200 2350
	-1   0    0    1   
$EndComp
$Comp
L LED_RGB-RESCUE-WhiteFox LED11
U 1 1 5818A9A5
P 7800 2350
AR Path="/5818A9A5" Ref="LED11"  Part="1" 
AR Path="/54B2C0DD/5818A9A5" Ref="LED11"  Part="1" 
F 0 "LED11" H 7800 2550 50  0000 C CNN
F 1 "LED_RGB" H 7800 2150 50  0000 C CNN
F 2 "lib.pretty:LED_RGB_6028" H 7800 2350 60  0001 C CNN
F 3 "" H 7800 2350 60  0000 C CNN
	1    7800 2350
	-1   0    0    1   
$EndComp
$Comp
L LED_RGB-RESCUE-WhiteFox LED12
U 1 1 5818A9AE
P 8400 2350
AR Path="/5818A9AE" Ref="LED12"  Part="1" 
AR Path="/54B2C0DD/5818A9AE" Ref="LED12"  Part="1" 
F 0 "LED12" H 8400 2550 50  0000 C CNN
F 1 "LED_RGB" H 8400 2150 50  0000 C CNN
F 2 "lib.pretty:LED_RGB_6028" H 8400 2350 60  0001 C CNN
F 3 "" H 8400 2350 60  0000 C CNN
	1    8400 2350
	-1   0    0    1   
$EndComp
$Comp
L LED_RGB-RESCUE-WhiteFox LED13
U 1 1 5818B2A5
P 9000 2350
AR Path="/5818B2A5" Ref="LED13"  Part="1" 
AR Path="/54B2C0DD/5818B2A5" Ref="LED13"  Part="1" 
F 0 "LED13" H 9000 2550 50  0000 C CNN
F 1 "LED_RGB" H 9000 2150 50  0000 C CNN
F 2 "lib.pretty:LED_RGB_6028" H 9000 2350 60  0001 C CNN
F 3 "" H 9000 2350 60  0000 C CNN
	1    9000 2350
	-1   0    0    1   
$EndComp
$Comp
L LED_RGB-RESCUE-WhiteFox LED14
U 1 1 5818B2B1
P 9600 2350
AR Path="/5818B2B1" Ref="LED14"  Part="1" 
AR Path="/54B2C0DD/5818B2B1" Ref="LED14"  Part="1" 
F 0 "LED14" H 9600 2550 50  0000 C CNN
F 1 "LED_RGB" H 9600 2150 50  0000 C CNN
F 2 "lib.pretty:LED_RGB_6028" H 9600 2350 60  0001 C CNN
F 3 "" H 9600 2350 60  0000 C CNN
	1    9600 2350
	-1   0    0    1   
$EndComp
$Comp
L LED_RGB-RESCUE-WhiteFox LED16
U 1 1 5818B3F9
P 10800 2350
AR Path="/5818B3F9" Ref="LED16"  Part="1" 
AR Path="/54B2C0DD/5818B3F9" Ref="LED16"  Part="1" 
F 0 "LED16" H 10800 2550 50  0000 C CNN
F 1 "LED_RGB" H 10800 2150 50  0000 C CNN
F 2 "lib.pretty:LED_RGB_6028" H 10800 2350 60  0001 C CNN
F 3 "" H 10800 2350 60  0000 C CNN
	1    10800 2350
	-1   0    0    1   
$EndComp
$Comp
L LED_RGB-RESCUE-WhiteFox LED17
U 1 1 58192E43
P 1800 3050
AR Path="/58192E43" Ref="LED17"  Part="1" 
AR Path="/54B2C0DD/58192E43" Ref="LED17"  Part="1" 
F 0 "LED17" H 1800 3250 50  0000 C CNN
F 1 "LED_RGB" H 1800 2850 50  0000 C CNN
F 2 "lib.pretty:LED_RGB_6028" H 1800 3050 60  0001 C CNN
F 3 "" H 1800 3050 60  0000 C CNN
	1    1800 3050
	-1   0    0    1   
$EndComp
$Comp
L LED_RGB-RESCUE-WhiteFox LED18
U 1 1 58192E4C
P 2400 3050
AR Path="/58192E4C" Ref="LED18"  Part="1" 
AR Path="/54B2C0DD/58192E4C" Ref="LED18"  Part="1" 
F 0 "LED18" H 2400 3250 50  0000 C CNN
F 1 "LED_RGB" H 2400 2850 50  0000 C CNN
F 2 "lib.pretty:LED_RGB_6028" H 2400 3050 60  0001 C CNN
F 3 "" H 2400 3050 60  0000 C CNN
	1    2400 3050
	-1   0    0    1   
$EndComp
$Comp
L LED_RGB-RESCUE-WhiteFox LED19
U 1 1 58192E5B
P 3000 3050
AR Path="/58192E5B" Ref="LED19"  Part="1" 
AR Path="/54B2C0DD/58192E5B" Ref="LED19"  Part="1" 
F 0 "LED19" H 3000 3250 50  0000 C CNN
F 1 "LED_RGB" H 3000 2850 50  0000 C CNN
F 2 "lib.pretty:LED_RGB_6028" H 3000 3050 60  0001 C CNN
F 3 "" H 3000 3050 60  0000 C CNN
	1    3000 3050
	-1   0    0    1   
$EndComp
$Comp
L LED_RGB-RESCUE-WhiteFox LED20
U 1 1 58192E64
P 3600 3050
AR Path="/58192E64" Ref="LED20"  Part="1" 
AR Path="/54B2C0DD/58192E64" Ref="LED20"  Part="1" 
F 0 "LED20" H 3600 3250 50  0000 C CNN
F 1 "LED_RGB" H 3600 2850 50  0000 C CNN
F 2 "lib.pretty:LED_RGB_6028" H 3600 3050 60  0001 C CNN
F 3 "" H 3600 3050 60  0000 C CNN
	1    3600 3050
	-1   0    0    1   
$EndComp
$Comp
L LED_RGB-RESCUE-WhiteFox LED21
U 1 1 58192E73
P 4200 3050
AR Path="/58192E73" Ref="LED21"  Part="1" 
AR Path="/54B2C0DD/58192E73" Ref="LED21"  Part="1" 
F 0 "LED21" H 4200 3250 50  0000 C CNN
F 1 "LED_RGB" H 4200 2850 50  0000 C CNN
F 2 "lib.pretty:LED_RGB_6028" H 4200 3050 60  0001 C CNN
F 3 "" H 4200 3050 60  0000 C CNN
	1    4200 3050
	-1   0    0    1   
$EndComp
$Comp
L LED_RGB-RESCUE-WhiteFox LED22
U 1 1 58192E7C
P 4800 3050
AR Path="/58192E7C" Ref="LED22"  Part="1" 
AR Path="/54B2C0DD/58192E7C" Ref="LED22"  Part="1" 
F 0 "LED22" H 4800 3250 50  0000 C CNN
F 1 "LED_RGB" H 4800 2850 50  0000 C CNN
F 2 "lib.pretty:LED_RGB_6028" H 4800 3050 60  0001 C CNN
F 3 "" H 4800 3050 60  0000 C CNN
	1    4800 3050
	-1   0    0    1   
$EndComp
$Comp
L LED_RGB-RESCUE-WhiteFox LED23
U 1 1 58192E8B
P 5400 3050
AR Path="/58192E8B" Ref="LED23"  Part="1" 
AR Path="/54B2C0DD/58192E8B" Ref="LED23"  Part="1" 
F 0 "LED23" H 5400 3250 50  0000 C CNN
F 1 "LED_RGB" H 5400 2850 50  0000 C CNN
F 2 "lib.pretty:LED_RGB_6028" H 5400 3050 60  0001 C CNN
F 3 "" H 5400 3050 60  0000 C CNN
	1    5400 3050
	-1   0    0    1   
$EndComp
$Comp
L LED_RGB-RESCUE-WhiteFox LED24
U 1 1 58192E94
P 6000 3050
AR Path="/58192E94" Ref="LED24"  Part="1" 
AR Path="/54B2C0DD/58192E94" Ref="LED24"  Part="1" 
F 0 "LED24" H 6000 3250 50  0000 C CNN
F 1 "LED_RGB" H 6000 2850 50  0000 C CNN
F 2 "lib.pretty:LED_RGB_6028" H 6000 3050 60  0001 C CNN
F 3 "" H 6000 3050 60  0000 C CNN
	1    6000 3050
	-1   0    0    1   
$EndComp
$Comp
L LED_RGB-RESCUE-WhiteFox LED25
U 1 1 58192EA3
P 6600 3050
AR Path="/58192EA3" Ref="LED25"  Part="1" 
AR Path="/54B2C0DD/58192EA3" Ref="LED25"  Part="1" 
F 0 "LED25" H 6600 3250 50  0000 C CNN
F 1 "LED_RGB" H 6600 2850 50  0000 C CNN
F 2 "lib.pretty:LED_RGB_6028" H 6600 3050 60  0001 C CNN
F 3 "" H 6600 3050 60  0000 C CNN
	1    6600 3050
	-1   0    0    1   
$EndComp
$Comp
L LED_RGB-RESCUE-WhiteFox LED26
U 1 1 58192EAC
P 7200 3050
AR Path="/58192EAC" Ref="LED26"  Part="1" 
AR Path="/54B2C0DD/58192EAC" Ref="LED26"  Part="1" 
F 0 "LED26" H 7200 3250 50  0000 C CNN
F 1 "LED_RGB" H 7200 2850 50  0000 C CNN
F 2 "lib.pretty:LED_RGB_6028" H 7200 3050 60  0001 C CNN
F 3 "" H 7200 3050 60  0000 C CNN
	1    7200 3050
	-1   0    0    1   
$EndComp
$Comp
L LED_RGB-RESCUE-WhiteFox LED27
U 1 1 58192EBB
P 7800 3050
AR Path="/58192EBB" Ref="LED27"  Part="1" 
AR Path="/54B2C0DD/58192EBB" Ref="LED27"  Part="1" 
F 0 "LED27" H 7800 3250 50  0000 C CNN
F 1 "LED_RGB" H 7800 2850 50  0000 C CNN
F 2 "lib.pretty:LED_RGB_6028" H 7800 3050 60  0001 C CNN
F 3 "" H 7800 3050 60  0000 C CNN
	1    7800 3050
	-1   0    0    1   
$EndComp
$Comp
L LED_RGB-RESCUE-WhiteFox LED28
U 1 1 58192EC4
P 8400 3050
AR Path="/58192EC4" Ref="LED28"  Part="1" 
AR Path="/54B2C0DD/58192EC4" Ref="LED28"  Part="1" 
F 0 "LED28" H 8400 3250 50  0000 C CNN
F 1 "LED_RGB" H 8400 2850 50  0000 C CNN
F 2 "lib.pretty:LED_RGB_6028" H 8400 3050 60  0001 C CNN
F 3 "" H 8400 3050 60  0000 C CNN
	1    8400 3050
	-1   0    0    1   
$EndComp
$Comp
L LED_RGB-RESCUE-WhiteFox LED29
U 1 1 58192ED3
P 9000 3050
AR Path="/58192ED3" Ref="LED29"  Part="1" 
AR Path="/54B2C0DD/58192ED3" Ref="LED29"  Part="1" 
F 0 "LED29" H 9000 3250 50  0000 C CNN
F 1 "LED_RGB" H 9000 2850 50  0000 C CNN
F 2 "lib.pretty:LED_RGB_6028" H 9000 3050 60  0001 C CNN
F 3 "" H 9000 3050 60  0000 C CNN
	1    9000 3050
	-1   0    0    1   
$EndComp
$Comp
L LED_RGB-RESCUE-WhiteFox LED30
U 1 1 58192EDF
P 9600 3050
AR Path="/58192EDF" Ref="LED30"  Part="1" 
AR Path="/54B2C0DD/58192EDF" Ref="LED30"  Part="1" 
F 0 "LED30" H 9600 3250 50  0000 C CNN
F 1 "LED_RGB" H 9600 2850 50  0000 C CNN
F 2 "lib.pretty:LED_RGB_6028" H 9600 3050 60  0001 C CNN
F 3 "" H 9600 3050 60  0000 C CNN
	1    9600 3050
	-1   0    0    1   
$EndComp
$Comp
L LED_RGB-RESCUE-WhiteFox LED32
U 1 1 58192EF7
P 10800 3050
AR Path="/58192EF7" Ref="LED32"  Part="1" 
AR Path="/54B2C0DD/58192EF7" Ref="LED32"  Part="1" 
F 0 "LED32" H 10800 3250 50  0000 C CNN
F 1 "LED_RGB" H 10800 2850 50  0000 C CNN
F 2 "lib.pretty:LED_RGB_6028" H 10800 3050 60  0001 C CNN
F 3 "" H 10800 3050 60  0000 C CNN
	1    10800 3050
	-1   0    0    1   
$EndComp
$Comp
L LED_RGB-RESCUE-WhiteFox LED33
U 1 1 58194593
P 1800 3750
AR Path="/58194593" Ref="LED33"  Part="1" 
AR Path="/54B2C0DD/58194593" Ref="LED33"  Part="1" 
F 0 "LED33" H 1800 3950 50  0000 C CNN
F 1 "LED_RGB" H 1800 3550 50  0000 C CNN
F 2 "lib.pretty:LED_RGB_6028" H 1800 3750 60  0001 C CNN
F 3 "" H 1800 3750 60  0000 C CNN
	1    1800 3750
	-1   0    0    1   
$EndComp
$Comp
L LED_RGB-RESCUE-WhiteFox LED34
U 1 1 5819459C
P 2400 3750
AR Path="/5819459C" Ref="LED34"  Part="1" 
AR Path="/54B2C0DD/5819459C" Ref="LED34"  Part="1" 
F 0 "LED34" H 2400 3950 50  0000 C CNN
F 1 "LED_RGB" H 2400 3550 50  0000 C CNN
F 2 "lib.pretty:LED_RGB_6028" H 2400 3750 60  0001 C CNN
F 3 "" H 2400 3750 60  0000 C CNN
	1    2400 3750
	-1   0    0    1   
$EndComp
$Comp
L LED_RGB-RESCUE-WhiteFox LED35
U 1 1 581945AB
P 3000 3750
AR Path="/581945AB" Ref="LED35"  Part="1" 
AR Path="/54B2C0DD/581945AB" Ref="LED35"  Part="1" 
F 0 "LED35" H 3000 3950 50  0000 C CNN
F 1 "LED_RGB" H 3000 3550 50  0000 C CNN
F 2 "lib.pretty:LED_RGB_6028" H 3000 3750 60  0001 C CNN
F 3 "" H 3000 3750 60  0000 C CNN
	1    3000 3750
	-1   0    0    1   
$EndComp
$Comp
L LED_RGB-RESCUE-WhiteFox LED36
U 1 1 581945B4
P 3600 3750
AR Path="/581945B4" Ref="LED36"  Part="1" 
AR Path="/54B2C0DD/581945B4" Ref="LED36"  Part="1" 
F 0 "LED36" H 3600 3950 50  0000 C CNN
F 1 "LED_RGB" H 3600 3550 50  0000 C CNN
F 2 "lib.pretty:LED_RGB_6028" H 3600 3750 60  0001 C CNN
F 3 "" H 3600 3750 60  0000 C CNN
	1    3600 3750
	-1   0    0    1   
$EndComp
$Comp
L LED_RGB-RESCUE-WhiteFox LED37
U 1 1 581945C3
P 4200 3750
AR Path="/581945C3" Ref="LED37"  Part="1" 
AR Path="/54B2C0DD/581945C3" Ref="LED37"  Part="1" 
F 0 "LED37" H 4200 3950 50  0000 C CNN
F 1 "LED_RGB" H 4200 3550 50  0000 C CNN
F 2 "lib.pretty:LED_RGB_6028" H 4200 3750 60  0001 C CNN
F 3 "" H 4200 3750 60  0000 C CNN
	1    4200 3750
	-1   0    0    1   
$EndComp
$Comp
L LED_RGB-RESCUE-WhiteFox LED38
U 1 1 581945CC
P 4800 3750
AR Path="/581945CC" Ref="LED38"  Part="1" 
AR Path="/54B2C0DD/581945CC" Ref="LED38"  Part="1" 
F 0 "LED38" H 4800 3950 50  0000 C CNN
F 1 "LED_RGB" H 4800 3550 50  0000 C CNN
F 2 "lib.pretty:LED_RGB_6028" H 4800 3750 60  0001 C CNN
F 3 "" H 4800 3750 60  0000 C CNN
	1    4800 3750
	-1   0    0    1   
$EndComp
$Comp
L LED_RGB-RESCUE-WhiteFox LED39
U 1 1 581945DB
P 5400 3750
AR Path="/581945DB" Ref="LED39"  Part="1" 
AR Path="/54B2C0DD/581945DB" Ref="LED39"  Part="1" 
F 0 "LED39" H 5400 3950 50  0000 C CNN
F 1 "LED_RGB" H 5400 3550 50  0000 C CNN
F 2 "lib.pretty:LED_RGB_6028" H 5400 3750 60  0001 C CNN
F 3 "" H 5400 3750 60  0000 C CNN
	1    5400 3750
	-1   0    0    1   
$EndComp
$Comp
L LED_RGB-RESCUE-WhiteFox LED40
U 1 1 581945E4
P 6000 3750
AR Path="/581945E4" Ref="LED40"  Part="1" 
AR Path="/54B2C0DD/581945E4" Ref="LED40"  Part="1" 
F 0 "LED40" H 6000 3950 50  0000 C CNN
F 1 "LED_RGB" H 6000 3550 50  0000 C CNN
F 2 "lib.pretty:LED_RGB_6028" H 6000 3750 60  0001 C CNN
F 3 "" H 6000 3750 60  0000 C CNN
	1    6000 3750
	-1   0    0    1   
$EndComp
$Comp
L LED_RGB-RESCUE-WhiteFox LED41
U 1 1 581945F3
P 6600 3750
AR Path="/581945F3" Ref="LED41"  Part="1" 
AR Path="/54B2C0DD/581945F3" Ref="LED41"  Part="1" 
F 0 "LED41" H 6600 3950 50  0000 C CNN
F 1 "LED_RGB" H 6600 3550 50  0000 C CNN
F 2 "lib.pretty:LED_RGB_6028" H 6600 3750 60  0001 C CNN
F 3 "" H 6600 3750 60  0000 C CNN
	1    6600 3750
	-1   0    0    1   
$EndComp
$Comp
L LED_RGB-RESCUE-WhiteFox LED42
U 1 1 581945FC
P 7200 3750
AR Path="/581945FC" Ref="LED42"  Part="1" 
AR Path="/54B2C0DD/581945FC" Ref="LED42"  Part="1" 
F 0 "LED42" H 7200 3950 50  0000 C CNN
F 1 "LED_RGB" H 7200 3550 50  0000 C CNN
F 2 "lib.pretty:LED_RGB_6028" H 7200 3750 60  0001 C CNN
F 3 "" H 7200 3750 60  0000 C CNN
	1    7200 3750
	-1   0    0    1   
$EndComp
$Comp
L LED_RGB-RESCUE-WhiteFox LED43
U 1 1 5819460B
P 7800 3750
AR Path="/5819460B" Ref="LED43"  Part="1" 
AR Path="/54B2C0DD/5819460B" Ref="LED43"  Part="1" 
F 0 "LED43" H 7800 3950 50  0000 C CNN
F 1 "LED_RGB" H 7800 3550 50  0000 C CNN
F 2 "lib.pretty:LED_RGB_6028" H 7800 3750 60  0001 C CNN
F 3 "" H 7800 3750 60  0000 C CNN
	1    7800 3750
	-1   0    0    1   
$EndComp
$Comp
L LED_RGB-RESCUE-WhiteFox LED44
U 1 1 58194614
P 8400 3750
AR Path="/58194614" Ref="LED44"  Part="1" 
AR Path="/54B2C0DD/58194614" Ref="LED44"  Part="1" 
F 0 "LED44" H 8400 3950 50  0000 C CNN
F 1 "LED_RGB" H 8400 3550 50  0000 C CNN
F 2 "lib.pretty:LED_RGB_6028" H 8400 3750 60  0001 C CNN
F 3 "" H 8400 3750 60  0000 C CNN
	1    8400 3750
	-1   0    0    1   
$EndComp
$Comp
L LED_RGB-RESCUE-WhiteFox LED45
U 1 1 58194623
P 9000 3750
AR Path="/58194623" Ref="LED45"  Part="1" 
AR Path="/54B2C0DD/58194623" Ref="LED45"  Part="1" 
F 0 "LED45" H 9000 3950 50  0000 C CNN
F 1 "LED_RGB" H 9000 3550 50  0000 C CNN
F 2 "lib.pretty:LED_RGB_6028" H 9000 3750 60  0001 C CNN
F 3 "" H 9000 3750 60  0000 C CNN
	1    9000 3750
	-1   0    0    1   
$EndComp
$Comp
L LED_RGB-RESCUE-WhiteFox LED46
U 1 1 5819462F
P 9600 3750
AR Path="/5819462F" Ref="LED46"  Part="1" 
AR Path="/54B2C0DD/5819462F" Ref="LED46"  Part="1" 
F 0 "LED46" H 9600 3950 50  0000 C CNN
F 1 "LED_RGB" H 9600 3550 50  0000 C CNN
F 2 "lib.pretty:LED_RGB_6028" H 9600 3750 60  0001 C CNN
F 3 "" H 9600 3750 60  0000 C CNN
	1    9600 3750
	-1   0    0    1   
$EndComp
$Comp
L LED_RGB-RESCUE-WhiteFox LED47
U 1 1 58194638
P 10200 3750
AR Path="/58194638" Ref="LED47"  Part="1" 
AR Path="/54B2C0DD/58194638" Ref="LED47"  Part="1" 
F 0 "LED47" H 10200 3950 50  0000 C CNN
F 1 "LED_RGB" H 10200 3550 50  0000 C CNN
F 2 "lib.pretty:LED_RGB_6028" H 10200 3750 60  0001 C CNN
F 3 "" H 10200 3750 60  0000 C CNN
	1    10200 3750
	-1   0    0    1   
$EndComp
$Comp
L LED_RGB-RESCUE-WhiteFox LED48
U 1 1 58194647
P 10800 3750
AR Path="/58194647" Ref="LED48"  Part="1" 
AR Path="/54B2C0DD/58194647" Ref="LED48"  Part="1" 
F 0 "LED48" H 10800 3950 50  0000 C CNN
F 1 "LED_RGB" H 10800 3550 50  0000 C CNN
F 2 "lib.pretty:LED_RGB_6028" H 10800 3750 60  0001 C CNN
F 3 "" H 10800 3750 60  0000 C CNN
	1    10800 3750
	-1   0    0    1   
$EndComp
$Comp
L LED_RGB-RESCUE-WhiteFox LED49
U 1 1 58194933
P 1800 4450
AR Path="/58194933" Ref="LED49"  Part="1" 
AR Path="/54B2C0DD/58194933" Ref="LED49"  Part="1" 
F 0 "LED49" H 1800 4650 50  0000 C CNN
F 1 "LED_RGB" H 1800 4250 50  0000 C CNN
F 2 "lib.pretty:LED_RGB_6028" H 1800 4450 60  0001 C CNN
F 3 "" H 1800 4450 60  0000 C CNN
	1    1800 4450
	-1   0    0    1   
$EndComp
$Comp
L LED_RGB-RESCUE-WhiteFox LED50
U 1 1 5819493C
P 2400 4450
AR Path="/5819493C" Ref="LED50"  Part="1" 
AR Path="/54B2C0DD/5819493C" Ref="LED50"  Part="1" 
F 0 "LED50" H 2400 4650 50  0000 C CNN
F 1 "LED_RGB" H 2400 4250 50  0000 C CNN
F 2 "lib.pretty:LED_RGB_6028" H 2400 4450 60  0001 C CNN
F 3 "" H 2400 4450 60  0000 C CNN
	1    2400 4450
	-1   0    0    1   
$EndComp
$Comp
L LED_RGB-RESCUE-WhiteFox LED51
U 1 1 5819494B
P 3000 4450
AR Path="/5819494B" Ref="LED51"  Part="1" 
AR Path="/54B2C0DD/5819494B" Ref="LED51"  Part="1" 
F 0 "LED51" H 3000 4650 50  0000 C CNN
F 1 "LED_RGB" H 3000 4250 50  0000 C CNN
F 2 "lib.pretty:LED_RGB_6028" H 3000 4450 60  0001 C CNN
F 3 "" H 3000 4450 60  0000 C CNN
	1    3000 4450
	-1   0    0    1   
$EndComp
$Comp
L LED_RGB-RESCUE-WhiteFox LED52
U 1 1 58194954
P 3600 4450
AR Path="/58194954" Ref="LED52"  Part="1" 
AR Path="/54B2C0DD/58194954" Ref="LED52"  Part="1" 
F 0 "LED52" H 3600 4650 50  0000 C CNN
F 1 "LED_RGB" H 3600 4250 50  0000 C CNN
F 2 "lib.pretty:LED_RGB_6028" H 3600 4450 60  0001 C CNN
F 3 "" H 3600 4450 60  0000 C CNN
	1    3600 4450
	-1   0    0    1   
$EndComp
$Comp
L LED_RGB-RESCUE-WhiteFox LED53
U 1 1 58194963
P 4200 4450
AR Path="/58194963" Ref="LED53"  Part="1" 
AR Path="/54B2C0DD/58194963" Ref="LED53"  Part="1" 
F 0 "LED53" H 4200 4650 50  0000 C CNN
F 1 "LED_RGB" H 4200 4250 50  0000 C CNN
F 2 "lib.pretty:LED_RGB_6028" H 4200 4450 60  0001 C CNN
F 3 "" H 4200 4450 60  0000 C CNN
	1    4200 4450
	-1   0    0    1   
$EndComp
$Comp
L LED_RGB-RESCUE-WhiteFox LED54
U 1 1 5819496C
P 4800 4450
AR Path="/5819496C" Ref="LED54"  Part="1" 
AR Path="/54B2C0DD/5819496C" Ref="LED54"  Part="1" 
F 0 "LED54" H 4800 4650 50  0000 C CNN
F 1 "LED_RGB" H 4800 4250 50  0000 C CNN
F 2 "lib.pretty:LED_RGB_6028" H 4800 4450 60  0001 C CNN
F 3 "" H 4800 4450 60  0000 C CNN
	1    4800 4450
	-1   0    0    1   
$EndComp
$Comp
L LED_RGB-RESCUE-WhiteFox LED55
U 1 1 5819497B
P 5400 4450
AR Path="/5819497B" Ref="LED55"  Part="1" 
AR Path="/54B2C0DD/5819497B" Ref="LED55"  Part="1" 
F 0 "LED55" H 5400 4650 50  0000 C CNN
F 1 "LED_RGB" H 5400 4250 50  0000 C CNN
F 2 "lib.pretty:LED_RGB_6028" H 5400 4450 60  0001 C CNN
F 3 "" H 5400 4450 60  0000 C CNN
	1    5400 4450
	-1   0    0    1   
$EndComp
$Comp
L LED_RGB-RESCUE-WhiteFox LED56
U 1 1 58194984
P 6000 4450
AR Path="/58194984" Ref="LED56"  Part="1" 
AR Path="/54B2C0DD/58194984" Ref="LED56"  Part="1" 
F 0 "LED56" H 6000 4650 50  0000 C CNN
F 1 "LED_RGB" H 6000 4250 50  0000 C CNN
F 2 "lib.pretty:LED_RGB_6028" H 6000 4450 60  0001 C CNN
F 3 "" H 6000 4450 60  0000 C CNN
	1    6000 4450
	-1   0    0    1   
$EndComp
$Comp
L LED_RGB-RESCUE-WhiteFox LED57
U 1 1 58194993
P 6600 4450
AR Path="/58194993" Ref="LED57"  Part="1" 
AR Path="/54B2C0DD/58194993" Ref="LED57"  Part="1" 
F 0 "LED57" H 6600 4650 50  0000 C CNN
F 1 "LED_RGB" H 6600 4250 50  0000 C CNN
F 2 "lib.pretty:LED_RGB_6028" H 6600 4450 60  0001 C CNN
F 3 "" H 6600 4450 60  0000 C CNN
	1    6600 4450
	-1   0    0    1   
$EndComp
$Comp
L LED_RGB-RESCUE-WhiteFox LED58
U 1 1 5819499C
P 7200 4450
AR Path="/5819499C" Ref="LED58"  Part="1" 
AR Path="/54B2C0DD/5819499C" Ref="LED58"  Part="1" 
F 0 "LED58" H 7200 4650 50  0000 C CNN
F 1 "LED_RGB" H 7200 4250 50  0000 C CNN
F 2 "lib.pretty:LED_RGB_6028" H 7200 4450 60  0001 C CNN
F 3 "" H 7200 4450 60  0000 C CNN
	1    7200 4450
	-1   0    0    1   
$EndComp
$Comp
L LED_RGB-RESCUE-WhiteFox LED59
U 1 1 581949AB
P 7800 4450
AR Path="/581949AB" Ref="LED59"  Part="1" 
AR Path="/54B2C0DD/581949AB" Ref="LED59"  Part="1" 
F 0 "LED59" H 7800 4650 50  0000 C CNN
F 1 "LED_RGB" H 7800 4250 50  0000 C CNN
F 2 "lib.pretty:LED_RGB_6028" H 7800 4450 60  0001 C CNN
F 3 "" H 7800 4450 60  0000 C CNN
	1    7800 4450
	-1   0    0    1   
$EndComp
$Comp
L LED_RGB-RESCUE-WhiteFox LED60
U 1 1 581949B4
P 8400 4450
AR Path="/581949B4" Ref="LED60"  Part="1" 
AR Path="/54B2C0DD/581949B4" Ref="LED60"  Part="1" 
F 0 "LED60" H 8400 4650 50  0000 C CNN
F 1 "LED_RGB" H 8400 4250 50  0000 C CNN
F 2 "lib.pretty:LED_RGB_6028" H 8400 4450 60  0001 C CNN
F 3 "" H 8400 4450 60  0000 C CNN
	1    8400 4450
	-1   0    0    1   
$EndComp
$Comp
L LED_RGB-RESCUE-WhiteFox LED61
U 1 1 581949C3
P 9000 4450
AR Path="/581949C3" Ref="LED61"  Part="1" 
AR Path="/54B2C0DD/581949C3" Ref="LED61"  Part="1" 
F 0 "LED61" H 9000 4650 50  0000 C CNN
F 1 "LED_RGB" H 9000 4250 50  0000 C CNN
F 2 "lib.pretty:LED_RGB_6028" H 9000 4450 60  0001 C CNN
F 3 "" H 9000 4450 60  0000 C CNN
	1    9000 4450
	-1   0    0    1   
$EndComp
$Comp
L LED_RGB-RESCUE-WhiteFox LED62
U 1 1 581949CF
P 9600 4450
AR Path="/581949CF" Ref="LED62"  Part="1" 
AR Path="/54B2C0DD/581949CF" Ref="LED62"  Part="1" 
F 0 "LED62" H 9600 4650 50  0000 C CNN
F 1 "LED_RGB" H 9600 4250 50  0000 C CNN
F 2 "lib.pretty:LED_RGB_6028" H 9600 4450 60  0001 C CNN
F 3 "" H 9600 4450 60  0000 C CNN
	1    9600 4450
	-1   0    0    1   
$EndComp
$Comp
L LED_RGB-RESCUE-WhiteFox LED63
U 1 1 581949D8
P 10200 4450
AR Path="/581949D8" Ref="LED63"  Part="1" 
AR Path="/54B2C0DD/581949D8" Ref="LED63"  Part="1" 
F 0 "LED63" H 10200 4650 50  0000 C CNN
F 1 "LED_RGB" H 10200 4250 50  0000 C CNN
F 2 "lib.pretty:LED_RGB_6028" H 10200 4450 60  0001 C CNN
F 3 "" H 10200 4450 60  0000 C CNN
	1    10200 4450
	-1   0    0    1   
$EndComp
$Comp
L LED_RGB-RESCUE-WhiteFox LED64
U 1 1 581949E7
P 10800 4450
AR Path="/581949E7" Ref="LED64"  Part="1" 
AR Path="/54B2C0DD/581949E7" Ref="LED64"  Part="1" 
F 0 "LED64" H 10800 4650 50  0000 C CNN
F 1 "LED_RGB" H 10800 4250 50  0000 C CNN
F 2 "lib.pretty:LED_RGB_6028" H 10800 4450 60  0001 C CNN
F 3 "" H 10800 4450 60  0000 C CNN
	1    10800 4450
	-1   0    0    1   
$EndComp
Wire Wire Line
	1450 2250 1600 2250
Wire Wire Line
	1600 2350 1500 2350
Wire Wire Line
	1600 2450 1550 2450
Wire Wire Line
	1450 2600 1450 2250
Wire Wire Line
	1500 2350 1500 2700
Wire Wire Line
	1550 2450 1550 2800
Wire Wire Line
	2200 2450 2150 2450
Wire Wire Line
	2150 2450 2150 2800
Wire Wire Line
	2200 2350 2100 2350
Wire Wire Line
	2100 2350 2100 2700
Wire Wire Line
	2200 2250 2050 2250
Wire Wire Line
	2050 2250 2050 2600
Wire Wire Line
	2650 2250 2800 2250
Wire Wire Line
	2800 2350 2700 2350
Wire Wire Line
	2800 2450 2750 2450
Wire Wire Line
	2650 2600 2650 2250
Wire Wire Line
	2700 2350 2700 2700
Wire Wire Line
	2750 2450 2750 2800
Wire Wire Line
	3400 2450 3350 2450
Wire Wire Line
	3350 2450 3350 2800
Wire Wire Line
	3400 2350 3300 2350
Wire Wire Line
	3300 2350 3300 2700
Wire Wire Line
	3400 2250 3250 2250
Wire Wire Line
	3250 2250 3250 2600
Wire Wire Line
	3850 2250 4000 2250
Wire Wire Line
	4000 2350 3900 2350
Wire Wire Line
	4000 2450 3950 2450
Wire Wire Line
	3850 2600 3850 2250
Wire Wire Line
	3900 2350 3900 2700
Wire Wire Line
	3950 2450 3950 2800
Wire Wire Line
	4600 2450 4550 2450
Wire Wire Line
	4550 2450 4550 2800
Wire Wire Line
	4600 2350 4500 2350
Wire Wire Line
	4500 2350 4500 2700
Wire Wire Line
	4600 2250 4450 2250
Wire Wire Line
	4450 2250 4450 2600
Wire Wire Line
	5050 2250 5200 2250
Wire Wire Line
	5200 2350 5100 2350
Wire Wire Line
	5200 2450 5150 2450
Wire Wire Line
	5050 2600 5050 2250
Wire Wire Line
	5100 2350 5100 2700
Wire Wire Line
	5150 2450 5150 2800
Wire Wire Line
	5800 2450 5750 2450
Wire Wire Line
	5750 2450 5750 2800
Wire Wire Line
	5800 2350 5700 2350
Wire Wire Line
	5700 2350 5700 2700
Wire Wire Line
	5800 2250 5650 2250
Wire Wire Line
	5650 2250 5650 2600
Wire Wire Line
	6250 2250 6400 2250
Wire Wire Line
	6400 2350 6300 2350
Wire Wire Line
	6400 2450 6350 2450
Wire Wire Line
	6250 2600 6250 2250
Wire Wire Line
	6300 2350 6300 2700
Wire Wire Line
	6350 2450 6350 2800
Wire Wire Line
	7000 2450 6950 2450
Wire Wire Line
	6950 2450 6950 2800
Wire Wire Line
	7000 2350 6900 2350
Wire Wire Line
	6900 2350 6900 2700
Wire Wire Line
	7000 2250 6850 2250
Wire Wire Line
	6850 2250 6850 2600
Wire Wire Line
	7450 2250 7600 2250
Wire Wire Line
	7600 2350 7500 2350
Wire Wire Line
	7600 2450 7550 2450
Wire Wire Line
	7450 2600 7450 2250
Wire Wire Line
	7500 2350 7500 2700
Wire Wire Line
	7550 2450 7550 2800
Wire Wire Line
	8200 2450 8150 2450
Wire Wire Line
	8150 2450 8150 2800
Wire Wire Line
	8200 2350 8100 2350
Wire Wire Line
	8100 2350 8100 2700
Wire Wire Line
	8200 2250 8050 2250
Wire Wire Line
	8050 2250 8050 2600
Wire Wire Line
	8800 2450 8750 2450
Wire Wire Line
	8750 2450 8750 2800
Wire Wire Line
	8800 2350 8700 2350
Wire Wire Line
	8700 2350 8700 2700
Wire Wire Line
	8800 2250 8650 2250
Wire Wire Line
	8650 2250 8650 2600
Wire Wire Line
	9250 2250 9400 2250
Wire Wire Line
	9400 2350 9300 2350
Wire Wire Line
	9400 2450 9350 2450
Wire Wire Line
	9250 2600 9250 2250
Wire Wire Line
	9300 2350 9300 2700
Wire Wire Line
	9350 2450 9350 2800
Wire Wire Line
	10000 2450 9950 2450
Wire Wire Line
	9950 2450 9950 2800
Wire Wire Line
	10000 2350 9900 2350
Wire Wire Line
	9900 2350 9900 2700
Wire Wire Line
	10000 2250 9850 2250
Wire Wire Line
	9850 2250 9850 2600
Wire Wire Line
	10600 2450 10550 2450
Wire Wire Line
	10550 2450 10550 2800
Wire Wire Line
	10600 2350 10500 2350
Wire Wire Line
	10500 2350 10500 2700
Wire Wire Line
	10600 2250 10450 2250
Wire Wire Line
	10450 2250 10450 2600
Wire Wire Line
	10450 2600 1400 2600
Wire Wire Line
	10500 2700 1400 2700
Wire Wire Line
	10550 2800 1400 2800
Connection ~ 1450 2600
Connection ~ 1500 2700
Connection ~ 1550 2800
Connection ~ 2050 2600
Connection ~ 2100 2700
Connection ~ 2150 2800
Connection ~ 2650 2600
Connection ~ 2700 2700
Connection ~ 2750 2800
Connection ~ 3250 2600
Connection ~ 3300 2700
Connection ~ 3350 2800
Connection ~ 3850 2600
Connection ~ 3900 2700
Connection ~ 3950 2800
Connection ~ 4450 2600
Connection ~ 4500 2700
Connection ~ 4550 2800
Connection ~ 5050 2600
Connection ~ 5100 2700
Connection ~ 5150 2800
Connection ~ 5650 2600
Connection ~ 6250 2600
Connection ~ 6850 2600
Connection ~ 7450 2600
Connection ~ 8050 2600
Connection ~ 8650 2600
Connection ~ 9250 2600
Connection ~ 9850 2600
Connection ~ 9900 2700
Connection ~ 9300 2700
Connection ~ 8700 2700
Connection ~ 8100 2700
Connection ~ 7500 2700
Connection ~ 6900 2700
Connection ~ 5700 2700
Connection ~ 6300 2700
Connection ~ 5750 2800
Connection ~ 6350 2800
Connection ~ 6950 2800
Connection ~ 7550 2800
Connection ~ 8150 2800
Connection ~ 8750 2800
Connection ~ 9350 2800
Connection ~ 9950 2800
Wire Wire Line
	1450 2950 1600 2950
Wire Wire Line
	1600 3050 1500 3050
Wire Wire Line
	1600 3150 1550 3150
Wire Wire Line
	1450 3300 1450 2950
Wire Wire Line
	1500 3050 1500 3400
Wire Wire Line
	1550 3150 1550 3500
Wire Wire Line
	2200 3150 2150 3150
Wire Wire Line
	2150 3150 2150 3500
Wire Wire Line
	2200 3050 2100 3050
Wire Wire Line
	2100 3050 2100 3400
Wire Wire Line
	2200 2950 2050 2950
Wire Wire Line
	2050 2950 2050 3300
Wire Wire Line
	2650 2950 2800 2950
Wire Wire Line
	2800 3050 2700 3050
Wire Wire Line
	2800 3150 2750 3150
Wire Wire Line
	2650 3300 2650 2950
Wire Wire Line
	2700 3050 2700 3400
Wire Wire Line
	2750 3150 2750 3500
Wire Wire Line
	3400 3150 3350 3150
Wire Wire Line
	3350 3150 3350 3500
Wire Wire Line
	3400 3050 3300 3050
Wire Wire Line
	3300 3050 3300 3400
Wire Wire Line
	3400 2950 3250 2950
Wire Wire Line
	3250 2950 3250 3300
Wire Wire Line
	3850 2950 4000 2950
Wire Wire Line
	4000 3050 3900 3050
Wire Wire Line
	4000 3150 3950 3150
Wire Wire Line
	3850 3300 3850 2950
Wire Wire Line
	3900 3050 3900 3400
Wire Wire Line
	3950 3150 3950 3500
Wire Wire Line
	4600 3150 4550 3150
Wire Wire Line
	4550 3150 4550 3500
Wire Wire Line
	4600 3050 4500 3050
Wire Wire Line
	4500 3050 4500 3400
Wire Wire Line
	4600 2950 4450 2950
Wire Wire Line
	4450 2950 4450 3300
Wire Wire Line
	5050 2950 5200 2950
Wire Wire Line
	5200 3050 5100 3050
Wire Wire Line
	5200 3150 5150 3150
Wire Wire Line
	5050 3300 5050 2950
Wire Wire Line
	5100 3050 5100 3400
Wire Wire Line
	5150 3150 5150 3500
Wire Wire Line
	5800 3150 5750 3150
Wire Wire Line
	5750 3150 5750 3500
Wire Wire Line
	5800 3050 5700 3050
Wire Wire Line
	5700 3050 5700 3400
Wire Wire Line
	5800 2950 5650 2950
Wire Wire Line
	5650 2950 5650 3300
Wire Wire Line
	6250 2950 6400 2950
Wire Wire Line
	6400 3050 6300 3050
Wire Wire Line
	6400 3150 6350 3150
Wire Wire Line
	6250 3300 6250 2950
Wire Wire Line
	6300 3050 6300 3400
Wire Wire Line
	6350 3150 6350 3500
Wire Wire Line
	7000 3150 6950 3150
Wire Wire Line
	6950 3150 6950 3500
Wire Wire Line
	7000 3050 6900 3050
Wire Wire Line
	6900 3050 6900 3400
Wire Wire Line
	7000 2950 6850 2950
Wire Wire Line
	6850 2950 6850 3300
Wire Wire Line
	7450 2950 7600 2950
Wire Wire Line
	7600 3050 7500 3050
Wire Wire Line
	7600 3150 7550 3150
Wire Wire Line
	7450 3300 7450 2950
Wire Wire Line
	7500 3050 7500 3400
Wire Wire Line
	7550 3150 7550 3500
Wire Wire Line
	8200 3150 8150 3150
Wire Wire Line
	8150 3150 8150 3500
Wire Wire Line
	8200 3050 8100 3050
Wire Wire Line
	8100 3050 8100 3400
Wire Wire Line
	8200 2950 8050 2950
Wire Wire Line
	8050 2950 8050 3300
Wire Wire Line
	8800 3150 8750 3150
Wire Wire Line
	8750 3150 8750 3500
Wire Wire Line
	8800 3050 8700 3050
Wire Wire Line
	8700 3050 8700 3400
Wire Wire Line
	8800 2950 8650 2950
Wire Wire Line
	8650 2950 8650 3300
Wire Wire Line
	9250 2950 9400 2950
Wire Wire Line
	9400 3050 9300 3050
Wire Wire Line
	9400 3150 9350 3150
Wire Wire Line
	9250 3300 9250 2950
Wire Wire Line
	9300 3050 9300 3400
Wire Wire Line
	9350 3150 9350 3500
Wire Wire Line
	10000 3150 9950 3150
Wire Wire Line
	9950 3150 9950 3500
Wire Wire Line
	10000 3050 9900 3050
Wire Wire Line
	9900 3050 9900 3400
Wire Wire Line
	10000 2950 9850 2950
Wire Wire Line
	9850 2950 9850 3300
Wire Wire Line
	10600 3150 10550 3150
Wire Wire Line
	10550 3150 10550 3500
Wire Wire Line
	10600 3050 10500 3050
Wire Wire Line
	10500 3050 10500 3400
Wire Wire Line
	10600 2950 10450 2950
Wire Wire Line
	10450 2950 10450 3300
Wire Wire Line
	10450 3300 1400 3300
Wire Wire Line
	10500 3400 1400 3400
Wire Wire Line
	10550 3500 1400 3500
Connection ~ 1450 3300
Connection ~ 1500 3400
Connection ~ 1550 3500
Connection ~ 2050 3300
Connection ~ 2100 3400
Connection ~ 2150 3500
Connection ~ 2650 3300
Connection ~ 2700 3400
Connection ~ 2750 3500
Connection ~ 3250 3300
Connection ~ 3300 3400
Connection ~ 3350 3500
Connection ~ 3850 3300
Connection ~ 3900 3400
Connection ~ 3950 3500
Connection ~ 4450 3300
Connection ~ 4500 3400
Connection ~ 4550 3500
Connection ~ 5050 3300
Connection ~ 5100 3400
Connection ~ 5150 3500
Connection ~ 5650 3300
Connection ~ 6250 3300
Connection ~ 6850 3300
Connection ~ 7450 3300
Connection ~ 8050 3300
Connection ~ 8650 3300
Connection ~ 9250 3300
Connection ~ 9850 3300
Connection ~ 9900 3400
Connection ~ 9300 3400
Connection ~ 8700 3400
Connection ~ 8100 3400
Connection ~ 7500 3400
Connection ~ 6900 3400
Connection ~ 5700 3400
Connection ~ 6300 3400
Connection ~ 5750 3500
Connection ~ 6350 3500
Connection ~ 6950 3500
Connection ~ 7550 3500
Connection ~ 8150 3500
Connection ~ 8750 3500
Connection ~ 9350 3500
Connection ~ 9950 3500
Wire Wire Line
	1450 3650 1600 3650
Wire Wire Line
	1600 3750 1500 3750
Wire Wire Line
	1600 3850 1550 3850
Wire Wire Line
	1450 4000 1450 3650
Wire Wire Line
	1500 3750 1500 4100
Wire Wire Line
	1550 3850 1550 4200
Wire Wire Line
	2200 3850 2150 3850
Wire Wire Line
	2150 3850 2150 4200
Wire Wire Line
	2200 3750 2100 3750
Wire Wire Line
	2100 3750 2100 4100
Wire Wire Line
	2200 3650 2050 3650
Wire Wire Line
	2050 3650 2050 4000
Wire Wire Line
	2650 3650 2800 3650
Wire Wire Line
	2800 3750 2700 3750
Wire Wire Line
	2800 3850 2750 3850
Wire Wire Line
	2650 4000 2650 3650
Wire Wire Line
	2700 3750 2700 4100
Wire Wire Line
	2750 3850 2750 4200
Wire Wire Line
	3400 3850 3350 3850
Wire Wire Line
	3350 3850 3350 4200
Wire Wire Line
	3400 3750 3300 3750
Wire Wire Line
	3300 3750 3300 4100
Wire Wire Line
	3400 3650 3250 3650
Wire Wire Line
	3250 3650 3250 4000
Wire Wire Line
	3850 3650 4000 3650
Wire Wire Line
	4000 3750 3900 3750
Wire Wire Line
	4000 3850 3950 3850
Wire Wire Line
	3850 4000 3850 3650
Wire Wire Line
	3900 3750 3900 4100
Wire Wire Line
	3950 3850 3950 4200
Wire Wire Line
	4600 3850 4550 3850
Wire Wire Line
	4550 3850 4550 4200
Wire Wire Line
	4600 3750 4500 3750
Wire Wire Line
	4500 3750 4500 4100
Wire Wire Line
	4600 3650 4450 3650
Wire Wire Line
	4450 3650 4450 4000
Wire Wire Line
	5050 3650 5200 3650
Wire Wire Line
	5200 3750 5100 3750
Wire Wire Line
	5200 3850 5150 3850
Wire Wire Line
	5050 4000 5050 3650
Wire Wire Line
	5100 3750 5100 4100
Wire Wire Line
	5150 3850 5150 4200
Wire Wire Line
	5800 3850 5750 3850
Wire Wire Line
	5750 3850 5750 4200
Wire Wire Line
	5800 3750 5700 3750
Wire Wire Line
	5700 3750 5700 4100
Wire Wire Line
	5800 3650 5650 3650
Wire Wire Line
	5650 3650 5650 4000
Wire Wire Line
	6250 3650 6400 3650
Wire Wire Line
	6400 3750 6300 3750
Wire Wire Line
	6400 3850 6350 3850
Wire Wire Line
	6250 4000 6250 3650
Wire Wire Line
	6300 3750 6300 4100
Wire Wire Line
	6350 3850 6350 4200
Wire Wire Line
	7000 3850 6950 3850
Wire Wire Line
	6950 3850 6950 4200
Wire Wire Line
	7000 3750 6900 3750
Wire Wire Line
	6900 3750 6900 4100
Wire Wire Line
	7000 3650 6850 3650
Wire Wire Line
	6850 3650 6850 4000
Wire Wire Line
	7450 3650 7600 3650
Wire Wire Line
	7600 3750 7500 3750
Wire Wire Line
	7600 3850 7550 3850
Wire Wire Line
	7450 4000 7450 3650
Wire Wire Line
	7500 3750 7500 4100
Wire Wire Line
	7550 3850 7550 4200
Wire Wire Line
	8200 3850 8150 3850
Wire Wire Line
	8150 3850 8150 4200
Wire Wire Line
	8200 3750 8100 3750
Wire Wire Line
	8100 3750 8100 4100
Wire Wire Line
	8200 3650 8050 3650
Wire Wire Line
	8050 3650 8050 4000
Wire Wire Line
	8800 3850 8750 3850
Wire Wire Line
	8750 3850 8750 4200
Wire Wire Line
	8800 3750 8700 3750
Wire Wire Line
	8700 3750 8700 4100
Wire Wire Line
	8800 3650 8650 3650
Wire Wire Line
	8650 3650 8650 4000
Wire Wire Line
	9250 3650 9400 3650
Wire Wire Line
	9400 3750 9300 3750
Wire Wire Line
	9400 3850 9350 3850
Wire Wire Line
	9250 4000 9250 3650
Wire Wire Line
	9300 3750 9300 4100
Wire Wire Line
	9350 3850 9350 4200
Wire Wire Line
	10000 3850 9950 3850
Wire Wire Line
	9950 3850 9950 4200
Wire Wire Line
	10000 3750 9900 3750
Wire Wire Line
	9900 3750 9900 4100
Wire Wire Line
	10000 3650 9850 3650
Wire Wire Line
	9850 3650 9850 4000
Wire Wire Line
	10600 3850 10550 3850
Wire Wire Line
	10550 3850 10550 4200
Wire Wire Line
	10600 3750 10500 3750
Wire Wire Line
	10500 3750 10500 4100
Wire Wire Line
	10600 3650 10450 3650
Wire Wire Line
	10450 3650 10450 4000
Wire Wire Line
	10450 4000 1400 4000
Wire Wire Line
	10500 4100 1400 4100
Wire Wire Line
	10550 4200 1400 4200
Connection ~ 1450 4000
Connection ~ 1500 4100
Connection ~ 1550 4200
Connection ~ 2050 4000
Connection ~ 2100 4100
Connection ~ 2150 4200
Connection ~ 2650 4000
Connection ~ 2700 4100
Connection ~ 2750 4200
Connection ~ 3250 4000
Connection ~ 3300 4100
Connection ~ 3350 4200
Connection ~ 3850 4000
Connection ~ 3900 4100
Connection ~ 3950 4200
Connection ~ 4450 4000
Connection ~ 4500 4100
Connection ~ 4550 4200
Connection ~ 5050 4000
Connection ~ 5100 4100
Connection ~ 5150 4200
Connection ~ 5650 4000
Connection ~ 6250 4000
Connection ~ 6850 4000
Connection ~ 7450 4000
Connection ~ 8050 4000
Connection ~ 8650 4000
Connection ~ 9250 4000
Connection ~ 9850 4000
Connection ~ 9900 4100
Connection ~ 9300 4100
Connection ~ 8700 4100
Connection ~ 8100 4100
Connection ~ 7500 4100
Connection ~ 6900 4100
Connection ~ 5700 4100
Connection ~ 6300 4100
Connection ~ 5750 4200
Connection ~ 6350 4200
Connection ~ 6950 4200
Connection ~ 7550 4200
Connection ~ 8150 4200
Connection ~ 8750 4200
Connection ~ 9350 4200
Connection ~ 9950 4200
Wire Wire Line
	1450 4350 1600 4350
Wire Wire Line
	1600 4450 1500 4450
Wire Wire Line
	1600 4550 1550 4550
Wire Wire Line
	1450 4700 1450 4350
Wire Wire Line
	1500 4450 1500 4800
Wire Wire Line
	1550 4550 1550 4900
Wire Wire Line
	2200 4550 2150 4550
Wire Wire Line
	2150 4550 2150 4900
Wire Wire Line
	2200 4450 2100 4450
Wire Wire Line
	2100 4450 2100 4800
Wire Wire Line
	2200 4350 2050 4350
Wire Wire Line
	2050 4350 2050 4700
Wire Wire Line
	2650 4350 2800 4350
Wire Wire Line
	2800 4450 2700 4450
Wire Wire Line
	2800 4550 2750 4550
Wire Wire Line
	2650 4700 2650 4350
Wire Wire Line
	2700 4450 2700 4800
Wire Wire Line
	2750 4550 2750 4900
Wire Wire Line
	3400 4550 3350 4550
Wire Wire Line
	3350 4550 3350 4900
Wire Wire Line
	3400 4450 3300 4450
Wire Wire Line
	3300 4450 3300 4800
Wire Wire Line
	3400 4350 3250 4350
Wire Wire Line
	3250 4350 3250 4700
Wire Wire Line
	3850 4350 4000 4350
Wire Wire Line
	4000 4450 3900 4450
Wire Wire Line
	4000 4550 3950 4550
Wire Wire Line
	3850 4700 3850 4350
Wire Wire Line
	3900 4450 3900 4800
Wire Wire Line
	3950 4550 3950 4900
Wire Wire Line
	4600 4550 4550 4550
Wire Wire Line
	4550 4550 4550 4900
Wire Wire Line
	4600 4450 4500 4450
Wire Wire Line
	4500 4450 4500 4800
Wire Wire Line
	4600 4350 4450 4350
Wire Wire Line
	4450 4350 4450 4700
Wire Wire Line
	5050 4350 5200 4350
Wire Wire Line
	5200 4450 5100 4450
Wire Wire Line
	5200 4550 5150 4550
Wire Wire Line
	5050 4700 5050 4350
Wire Wire Line
	5100 4450 5100 4800
Wire Wire Line
	5150 4550 5150 4900
Wire Wire Line
	5800 4550 5750 4550
Wire Wire Line
	5750 4550 5750 4900
Wire Wire Line
	5800 4450 5700 4450
Wire Wire Line
	5700 4450 5700 4800
Wire Wire Line
	5800 4350 5650 4350
Wire Wire Line
	5650 4350 5650 4700
Wire Wire Line
	6250 4350 6400 4350
Wire Wire Line
	6400 4450 6300 4450
Wire Wire Line
	6400 4550 6350 4550
Wire Wire Line
	6250 4700 6250 4350
Wire Wire Line
	6300 4450 6300 4800
Wire Wire Line
	6350 4550 6350 4900
Wire Wire Line
	7000 4550 6950 4550
Wire Wire Line
	6950 4550 6950 4900
Wire Wire Line
	7000 4450 6900 4450
Wire Wire Line
	6900 4450 6900 4800
Wire Wire Line
	7000 4350 6850 4350
Wire Wire Line
	6850 4350 6850 4700
Wire Wire Line
	7450 4350 7600 4350
Wire Wire Line
	7600 4450 7500 4450
Wire Wire Line
	7600 4550 7550 4550
Wire Wire Line
	7450 4700 7450 4350
Wire Wire Line
	7500 4450 7500 4800
Wire Wire Line
	7550 4550 7550 4900
Wire Wire Line
	8200 4550 8150 4550
Wire Wire Line
	8150 4550 8150 4900
Wire Wire Line
	8200 4450 8100 4450
Wire Wire Line
	8100 4450 8100 4800
Wire Wire Line
	8200 4350 8050 4350
Wire Wire Line
	8050 4350 8050 4700
Wire Wire Line
	8800 4550 8750 4550
Wire Wire Line
	8750 4550 8750 4900
Wire Wire Line
	8800 4450 8700 4450
Wire Wire Line
	8700 4450 8700 4800
Wire Wire Line
	8800 4350 8650 4350
Wire Wire Line
	8650 4350 8650 4700
Wire Wire Line
	9250 4350 9400 4350
Wire Wire Line
	9400 4450 9300 4450
Wire Wire Line
	9400 4550 9350 4550
Wire Wire Line
	9250 4700 9250 4350
Wire Wire Line
	9300 4450 9300 4800
Wire Wire Line
	9350 4550 9350 4900
Wire Wire Line
	10000 4550 9950 4550
Wire Wire Line
	9950 4550 9950 4900
Wire Wire Line
	10000 4450 9900 4450
Wire Wire Line
	9900 4450 9900 4800
Wire Wire Line
	10000 4350 9850 4350
Wire Wire Line
	9850 4350 9850 4700
Wire Wire Line
	10600 4550 10550 4550
Wire Wire Line
	10550 4550 10550 4900
Wire Wire Line
	10600 4450 10500 4450
Wire Wire Line
	10500 4450 10500 4800
Wire Wire Line
	10600 4350 10450 4350
Wire Wire Line
	10450 4350 10450 4700
Wire Wire Line
	10450 4700 1400 4700
Wire Wire Line
	10500 4800 1400 4800
Wire Wire Line
	10550 4900 1400 4900
Connection ~ 1450 4700
Connection ~ 1500 4800
Connection ~ 1550 4900
Connection ~ 2050 4700
Connection ~ 2100 4800
Connection ~ 2150 4900
Connection ~ 2650 4700
Connection ~ 2700 4800
Connection ~ 2750 4900
Connection ~ 3250 4700
Connection ~ 3300 4800
Connection ~ 3350 4900
Connection ~ 3850 4700
Connection ~ 3900 4800
Connection ~ 3950 4900
Connection ~ 4450 4700
Connection ~ 4500 4800
Connection ~ 4550 4900
Connection ~ 5050 4700
Connection ~ 5100 4800
Connection ~ 5150 4900
Connection ~ 5650 4700
Connection ~ 6250 4700
Connection ~ 6850 4700
Connection ~ 7450 4700
Connection ~ 8050 4700
Connection ~ 8650 4700
Connection ~ 9250 4700
Connection ~ 9850 4700
Connection ~ 9900 4800
Connection ~ 9300 4800
Connection ~ 8700 4800
Connection ~ 8100 4800
Connection ~ 7500 4800
Connection ~ 6900 4800
Connection ~ 5700 4800
Connection ~ 6300 4800
Connection ~ 5750 4900
Connection ~ 6350 4900
Connection ~ 6950 4900
Connection ~ 7550 4900
Connection ~ 8150 4900
Connection ~ 8750 4900
Connection ~ 9350 4900
Connection ~ 9950 4900
Wire Wire Line
	2000 2050 2000 4450
Wire Wire Line
	2600 2050 2600 4450
Wire Wire Line
	3200 2050 3200 4450
Connection ~ 2000 2350
Connection ~ 2000 3050
Connection ~ 2000 3750
Connection ~ 2600 3750
Connection ~ 2600 2350
Connection ~ 2600 3050
Connection ~ 3200 2350
Connection ~ 3200 3050
Connection ~ 3200 3750
Wire Wire Line
	3800 2050 3800 4450
Connection ~ 3800 3750
Connection ~ 3800 3050
Connection ~ 3800 2350
Wire Wire Line
	4400 2050 4400 4450
Wire Wire Line
	5000 2050 5000 4450
Wire Wire Line
	5600 2050 5600 4450
Connection ~ 4400 2350
Connection ~ 4400 3050
Connection ~ 4400 3750
Connection ~ 5000 3750
Connection ~ 5000 2350
Connection ~ 5000 3050
Connection ~ 5600 2350
Connection ~ 5600 3050
Connection ~ 5600 3750
Wire Wire Line
	6200 2050 6200 4450
Connection ~ 6200 3750
Connection ~ 6200 3050
Connection ~ 6200 2350
Wire Wire Line
	6800 2050 6800 4450
Connection ~ 6800 2350
Connection ~ 6800 3050
Connection ~ 6800 3750
Wire Wire Line
	7400 2050 7400 4450
Connection ~ 7400 3750
Connection ~ 7400 3050
Connection ~ 7400 2350
Wire Wire Line
	8000 2050 8000 4450
Connection ~ 8000 2350
Connection ~ 8000 3050
Connection ~ 8000 3750
Wire Wire Line
	8600 2050 8600 4450
Wire Wire Line
	9200 2050 9200 4450
Wire Wire Line
	9800 2050 9800 4450
Wire Wire Line
	10400 2050 10400 4450
Wire Wire Line
	11000 2050 11000 4450
Connection ~ 11000 3750
Connection ~ 10400 3750
Connection ~ 9800 3750
Connection ~ 9200 3750
Connection ~ 8600 3750
Connection ~ 8600 3050
Connection ~ 8600 2350
Connection ~ 9200 3050
Connection ~ 9200 2350
Connection ~ 9800 3050
Connection ~ 9800 2350
Connection ~ 10400 3050
Connection ~ 10400 2350
Connection ~ 11000 3050
Connection ~ 11000 2350
Text HLabel 5000 2050 1    60   BiDi ~ 0
CS6
Text Notes 750  2850 0    60   ~ 0
BLUE\nRED\nGREEN
Text Notes 750  3550 0    60   ~ 0
BLUE\nRED\nGREEN
Text Notes 750  4250 0    60   ~ 0
BLUE\nRED\nGREEN
Text Notes 750  4950 0    60   ~ 0
BLUE\nRED\nGREEN
$EndSCHEMATC
