EESchema Schematic File Version 2
LIBS:WhiteFox-rescue
LIBS:WhiteFox
LIBS:device
LIBS:WhiteFox-cache
EELAYER 25 0
EELAYER END
$Descr A3 16535 11693
encoding utf-8
Sheet 1 3
Title "WhiteFox"
Date "2016-06-11"
Rev "1.02a"
Comp "Input Club"
Comment1 ""
Comment2 ""
Comment3 ""
Comment4 ""
$EndDescr
$Comp
L SW S1
U 1 1 549A1D53
P 1000 800
F 0 "S1" H 1000 900 60  0000 C CNN
F 1 "SW" H 1000 750 60  0000 C CNN
F 2 "lib.pretty:SW_SOCKET_COMBINED_T" H 1000 800 60  0001 C CNN
F 3 "~" H 1000 800 60  0000 C CNN
	1    1000 800 
	1    0    0    -1  
$EndComp
$Comp
L DIODE D1
U 1 1 549A1D6C
P 1200 1000
F 0 "D1" H 1200 1100 40  0000 C CNN
F 1 "DIODE" H 1200 900 40  0000 C CNN
F 2 "lib.pretty:SOT123-DIODE" H 1200 1000 60  0001 C CNN
F 3 "~" H 1200 1000 60  0000 C CNN
	1    1200 1000
	0    1    1    0   
$EndComp
$Comp
L SW S2
U 1 1 549A1D79
P 1700 800
F 0 "S2" H 1700 900 60  0000 C CNN
F 1 "SW" H 1700 750 60  0000 C CNN
F 2 "lib.pretty:SW_SOCKET_COMBINED_T" H 1700 800 60  0001 C CNN
F 3 "~" H 1700 800 60  0000 C CNN
	1    1700 800 
	1    0    0    -1  
$EndComp
$Comp
L DIODE D2
U 1 1 549A1D7F
P 1900 1000
F 0 "D2" H 1900 1100 40  0000 C CNN
F 1 "DIODE" H 1900 900 40  0000 C CNN
F 2 "lib.pretty:SOT123-DIODE" H 1900 1000 60  0001 C CNN
F 3 "~" H 1900 1000 60  0000 C CNN
	1    1900 1000
	0    1    1    0   
$EndComp
$Comp
L SW S3
U 1 1 549A1D85
P 2400 800
F 0 "S3" H 2400 900 60  0000 C CNN
F 1 "SW" H 2400 750 60  0000 C CNN
F 2 "lib.pretty:SW_SOCKET_COMBINED_T" H 2400 800 60  0001 C CNN
F 3 "~" H 2400 800 60  0000 C CNN
	1    2400 800 
	1    0    0    -1  
$EndComp
$Comp
L DIODE D3
U 1 1 549A1D8B
P 2600 1000
F 0 "D3" H 2600 1100 40  0000 C CNN
F 1 "DIODE" H 2600 900 40  0000 C CNN
F 2 "lib.pretty:SOT123-DIODE" H 2600 1000 60  0001 C CNN
F 3 "~" H 2600 1000 60  0000 C CNN
	1    2600 1000
	0    1    1    0   
$EndComp
$Comp
L SW S4
U 1 1 549A1D91
P 3100 800
F 0 "S4" H 3100 900 60  0000 C CNN
F 1 "SW" H 3100 750 60  0000 C CNN
F 2 "lib.pretty:SW_SOCKET_COMBINED_T" H 3100 800 60  0001 C CNN
F 3 "~" H 3100 800 60  0000 C CNN
	1    3100 800 
	1    0    0    -1  
$EndComp
$Comp
L DIODE D4
U 1 1 549A1D97
P 3300 1000
F 0 "D4" H 3300 1100 40  0000 C CNN
F 1 "DIODE" H 3300 900 40  0000 C CNN
F 2 "lib.pretty:SOT123-DIODE" H 3300 1000 60  0001 C CNN
F 3 "~" H 3300 1000 60  0000 C CNN
	1    3300 1000
	0    1    1    0   
$EndComp
Connection ~ 1900 1200
Connection ~ 2600 1200
Connection ~ 3300 1200
Text Label 8400 6550 2    60   ~ 0
Col1
Text Label 8400 6650 2    60   ~ 0
Col2
Text Label 8400 6750 2    60   ~ 0
Col3
Text Label 8400 6850 2    60   ~ 0
Col4
Text Label 8400 6950 2    60   ~ 0
Col5
Text Label 8400 7050 2    60   ~ 0
Col6
Text Label 8400 7150 2    60   ~ 0
Col7
Text Label 8400 7250 2    60   ~ 0
Col8
Text Label 8400 7350 2    60   ~ 0
Col9
Text Label 8400 7450 2    60   ~ 0
Row1
Text Label 8400 7550 2    60   ~ 0
Row2
Text Label 8400 7650 2    60   ~ 0
Row3
Text Label 8400 7750 2    60   ~ 0
Row4
Text Label 8400 7850 2    60   ~ 0
Row5
NoConn ~ 8400 6450
NoConn ~ 8400 6350
NoConn ~ 8400 6250
Wire Wire Line
	9550 6900 10500 6900
Wire Wire Line
	9550 7000 10500 7000
Wire Wire Line
	9550 7100 10500 7100
Wire Wire Line
	9550 7200 10500 7200
Wire Wire Line
	9550 7300 10500 7300
Wire Wire Line
	9550 7400 10500 7400
Wire Wire Line
	9550 7500 10500 7500
Wire Wire Line
	9550 7600 10500 7600
$Comp
L DIODE D5
U 1 1 54F8020D
P 4000 1000
F 0 "D5" H 4000 1100 40  0000 C CNN
F 1 "DIODE" H 4000 900 40  0000 C CNN
F 2 "lib.pretty:SOT123-DIODE" H 4000 1000 60  0001 C CNN
F 3 "~" H 4000 1000 60  0000 C CNN
	1    4000 1000
	0    1    1    0   
$EndComp
$Comp
L SW S6
U 1 1 54F80213
P 4500 800
F 0 "S6" H 4500 900 60  0000 C CNN
F 1 "SW" H 4500 750 60  0000 C CNN
F 2 "lib.pretty:SW_SOCKET_COMBINED_T" H 4500 800 60  0001 C CNN
F 3 "~" H 4500 800 60  0000 C CNN
	1    4500 800 
	1    0    0    -1  
$EndComp
$Comp
L DIODE D6
U 1 1 54F80219
P 4700 1000
F 0 "D6" H 4700 1100 40  0000 C CNN
F 1 "DIODE" H 4700 900 40  0000 C CNN
F 2 "lib.pretty:SOT123-DIODE" H 4700 1000 60  0001 C CNN
F 3 "~" H 4700 1000 60  0000 C CNN
	1    4700 1000
	0    1    1    0   
$EndComp
$Comp
L DIODE D7
U 1 1 54F80225
P 5400 1000
F 0 "D7" H 5400 1100 40  0000 C CNN
F 1 "DIODE" H 5400 900 40  0000 C CNN
F 2 "lib.pretty:SOT123-DIODE" H 5400 1000 60  0001 C CNN
F 3 "~" H 5400 1000 60  0000 C CNN
	1    5400 1000
	0    1    1    0   
$EndComp
$Comp
L SW S8
U 1 1 54F8022B
P 5900 800
F 0 "S8" H 5900 900 60  0000 C CNN
F 1 "SW" H 5900 750 60  0000 C CNN
F 2 "lib.pretty:SW_SOCKET_COMBINED_T" H 5900 800 60  0001 C CNN
F 3 "~" H 5900 800 60  0000 C CNN
	1    5900 800 
	1    0    0    -1  
$EndComp
$Comp
L DIODE D8
U 1 1 54F80231
P 6100 1000
F 0 "D8" H 6100 1100 40  0000 C CNN
F 1 "DIODE" H 6100 900 40  0000 C CNN
F 2 "lib.pretty:SOT123-DIODE" H 6100 1000 60  0001 C CNN
F 3 "~" H 6100 1000 60  0000 C CNN
	1    6100 1000
	0    1    1    0   
$EndComp
Connection ~ 4700 1200
Connection ~ 5400 1200
Connection ~ 6100 1200
Connection ~ 4000 1200
$Comp
L SW S9
U 1 1 54F8058B
P 6600 800
F 0 "S9" H 6600 900 60  0000 C CNN
F 1 "SW" H 6600 750 60  0000 C CNN
F 2 "lib.pretty:SW_SOCKET_COMBINED_T" H 6600 800 60  0001 C CNN
F 3 "~" H 6600 800 60  0000 C CNN
	1    6600 800 
	1    0    0    -1  
$EndComp
$Comp
L DIODE D9
U 1 1 54F80591
P 6800 1000
F 0 "D9" H 6800 1100 40  0000 C CNN
F 1 "DIODE" H 6800 900 40  0000 C CNN
F 2 "lib.pretty:SOT123-DIODE" H 6800 1000 60  0001 C CNN
F 3 "~" H 6800 1000 60  0000 C CNN
	1    6800 1000
	0    1    1    0   
$EndComp
Connection ~ 6800 1200
$Comp
L SW S10
U 1 1 54F80A1F
P 1000 1500
F 0 "S10" H 1000 1600 60  0000 C CNN
F 1 "SW" H 1000 1450 60  0000 C CNN
F 2 "lib.pretty:SW_SOCKET_COMBINED_T" H 1000 1500 60  0001 C CNN
F 3 "~" H 1000 1500 60  0000 C CNN
	1    1000 1500
	1    0    0    -1  
$EndComp
$Comp
L DIODE D10
U 1 1 54F80A25
P 1200 1700
F 0 "D10" H 1200 1800 40  0000 C CNN
F 1 "DIODE" H 1200 1600 40  0000 C CNN
F 2 "lib.pretty:SOT123-DIODE" H 1200 1700 60  0001 C CNN
F 3 "~" H 1200 1700 60  0000 C CNN
	1    1200 1700
	0    1    1    0   
$EndComp
$Comp
L SW S11
U 1 1 54F80A2B
P 1700 1500
F 0 "S11" H 1700 1600 60  0000 C CNN
F 1 "SW" H 1700 1450 60  0000 C CNN
F 2 "lib.pretty:SW_SOCKET_COMBINED_T" H 1700 1500 60  0001 C CNN
F 3 "~" H 1700 1500 60  0000 C CNN
	1    1700 1500
	1    0    0    -1  
$EndComp
$Comp
L DIODE D11
U 1 1 54F80A31
P 1900 1700
F 0 "D11" H 1900 1800 40  0000 C CNN
F 1 "DIODE" H 1900 1600 40  0000 C CNN
F 2 "lib.pretty:SOT123-DIODE" H 1900 1700 60  0001 C CNN
F 3 "~" H 1900 1700 60  0000 C CNN
	1    1900 1700
	0    1    1    0   
$EndComp
$Comp
L SW S12
U 1 1 54F80A37
P 2400 1500
F 0 "S12" H 2400 1600 60  0000 C CNN
F 1 "SW" H 2400 1450 60  0000 C CNN
F 2 "lib.pretty:SW_SOCKET_COMBINED_T" H 2400 1500 60  0001 C CNN
F 3 "~" H 2400 1500 60  0000 C CNN
	1    2400 1500
	1    0    0    -1  
$EndComp
$Comp
L DIODE D12
U 1 1 54F80A3D
P 2600 1700
F 0 "D12" H 2600 1800 40  0000 C CNN
F 1 "DIODE" H 2600 1600 40  0000 C CNN
F 2 "lib.pretty:SOT123-DIODE" H 2600 1700 60  0001 C CNN
F 3 "~" H 2600 1700 60  0000 C CNN
	1    2600 1700
	0    1    1    0   
$EndComp
$Comp
L SW S13
U 1 1 54F80A43
P 3100 1500
F 0 "S13" H 3100 1600 60  0000 C CNN
F 1 "SW" H 3100 1450 60  0000 C CNN
F 2 "lib.pretty:SW_SOCKET_COMBINED_T" H 3100 1500 60  0001 C CNN
F 3 "~" H 3100 1500 60  0000 C CNN
	1    3100 1500
	1    0    0    -1  
$EndComp
$Comp
L DIODE D13
U 1 1 54F80A49
P 3300 1700
F 0 "D13" H 3300 1800 40  0000 C CNN
F 1 "DIODE" H 3300 1600 40  0000 C CNN
F 2 "lib.pretty:SOT123-DIODE" H 3300 1700 60  0001 C CNN
F 3 "~" H 3300 1700 60  0000 C CNN
	1    3300 1700
	0    1    1    0   
$EndComp
Connection ~ 1900 1900
Connection ~ 2600 1900
Connection ~ 3300 1900
Connection ~ 2900 1500
Connection ~ 2200 1500
Connection ~ 1500 1500
Connection ~ 800  1500
$Comp
L SW S15
U 1 1 54F80A63
P 4500 1500
F 0 "S15" H 4500 1600 60  0000 C CNN
F 1 "SW" H 4500 1450 60  0000 C CNN
F 2 "lib.pretty:SW_SOCKET_COMBINED_T" H 4500 1500 60  0001 C CNN
F 3 "~" H 4500 1500 60  0000 C CNN
	1    4500 1500
	1    0    0    -1  
$EndComp
$Comp
L DIODE D15
U 1 1 54F80A69
P 4700 1700
F 0 "D15" H 4700 1800 40  0000 C CNN
F 1 "DIODE" H 4700 1600 40  0000 C CNN
F 2 "lib.pretty:SOT123-DIODE" H 4700 1700 60  0001 C CNN
F 3 "~" H 4700 1700 60  0000 C CNN
	1    4700 1700
	0    1    1    0   
$EndComp
$Comp
L SW S17
U 1 1 54F80A7B
P 5900 1500
F 0 "S17" H 5900 1600 60  0000 C CNN
F 1 "SW" H 5900 1450 60  0000 C CNN
F 2 "lib.pretty:SW_SOCKET_COMBINED_T" H 5900 1500 60  0001 C CNN
F 3 "~" H 5900 1500 60  0000 C CNN
	1    5900 1500
	1    0    0    -1  
$EndComp
$Comp
L DIODE D17
U 1 1 54F80A81
P 6100 1700
F 0 "D17" H 6100 1800 40  0000 C CNN
F 1 "DIODE" H 6100 1600 40  0000 C CNN
F 2 "lib.pretty:SOT123-DIODE" H 6100 1700 60  0001 C CNN
F 3 "~" H 6100 1700 60  0000 C CNN
	1    6100 1700
	0    1    1    0   
$EndComp
Connection ~ 4700 1900
Connection ~ 6100 1900
Connection ~ 5700 1500
Connection ~ 4300 1500
$Comp
L SW S18
U 1 1 54F80A8F
P 6600 1500
F 0 "S18" H 6600 1600 60  0000 C CNN
F 1 "SW" H 6600 1450 60  0000 C CNN
F 2 "lib.pretty:SW_SOCKET_COMBINED_T" H 6600 1500 60  0001 C CNN
F 3 "~" H 6600 1500 60  0000 C CNN
	1    6600 1500
	1    0    0    -1  
$EndComp
$Comp
L DIODE D18
U 1 1 54F80A95
P 6800 1700
F 0 "D18" H 6800 1800 40  0000 C CNN
F 1 "DIODE" H 6800 1600 40  0000 C CNN
F 2 "lib.pretty:SOT123-DIODE" H 6800 1700 60  0001 C CNN
F 3 "~" H 6800 1700 60  0000 C CNN
	1    6800 1700
	0    1    1    0   
$EndComp
Connection ~ 6800 1900
Connection ~ 6400 1500
$Comp
L SW S19
U 1 1 54F81175
P 1000 2200
F 0 "S19" H 1000 2300 60  0000 C CNN
F 1 "SW" H 1000 2150 60  0000 C CNN
F 2 "lib.pretty:SW_SOCKET_COMBINED_T" H 1000 2200 60  0001 C CNN
F 3 "~" H 1000 2200 60  0000 C CNN
	1    1000 2200
	1    0    0    -1  
$EndComp
$Comp
L DIODE D19
U 1 1 54F8117B
P 1200 2400
F 0 "D19" H 1200 2500 40  0000 C CNN
F 1 "DIODE" H 1200 2300 40  0000 C CNN
F 2 "lib.pretty:SOT123-DIODE" H 1200 2400 60  0001 C CNN
F 3 "~" H 1200 2400 60  0000 C CNN
	1    1200 2400
	0    1    1    0   
$EndComp
$Comp
L SW S20
U 1 1 54F81181
P 1700 2200
F 0 "S20" H 1700 2300 60  0000 C CNN
F 1 "SW" H 1700 2150 60  0000 C CNN
F 2 "lib.pretty:SW_SOCKET_COMBINED_T" H 1700 2200 60  0001 C CNN
F 3 "~" H 1700 2200 60  0000 C CNN
	1    1700 2200
	1    0    0    -1  
$EndComp
$Comp
L DIODE D20
U 1 1 54F81187
P 1900 2400
F 0 "D20" H 1900 2500 40  0000 C CNN
F 1 "DIODE" H 1900 2300 40  0000 C CNN
F 2 "lib.pretty:SOT123-DIODE" H 1900 2400 60  0001 C CNN
F 3 "~" H 1900 2400 60  0000 C CNN
	1    1900 2400
	0    1    1    0   
$EndComp
$Comp
L SW S21
U 1 1 54F8118D
P 2400 2200
F 0 "S21" H 2400 2300 60  0000 C CNN
F 1 "SW" H 2400 2150 60  0000 C CNN
F 2 "lib.pretty:SW_SOCKET_COMBINED_T" H 2400 2200 60  0001 C CNN
F 3 "~" H 2400 2200 60  0000 C CNN
	1    2400 2200
	1    0    0    -1  
$EndComp
$Comp
L DIODE D21
U 1 1 54F81193
P 2600 2400
F 0 "D21" H 2600 2500 40  0000 C CNN
F 1 "DIODE" H 2600 2300 40  0000 C CNN
F 2 "lib.pretty:SOT123-DIODE" H 2600 2400 60  0001 C CNN
F 3 "~" H 2600 2400 60  0000 C CNN
	1    2600 2400
	0    1    1    0   
$EndComp
$Comp
L SW S22
U 1 1 54F81199
P 3100 2200
F 0 "S22" H 3100 2300 60  0000 C CNN
F 1 "SW" H 3100 2150 60  0000 C CNN
F 2 "lib.pretty:SW_SOCKET_COMBINED_T" H 3100 2200 60  0001 C CNN
F 3 "~" H 3100 2200 60  0000 C CNN
	1    3100 2200
	1    0    0    -1  
$EndComp
$Comp
L DIODE D22
U 1 1 54F8119F
P 3300 2400
F 0 "D22" H 3300 2500 40  0000 C CNN
F 1 "DIODE" H 3300 2300 40  0000 C CNN
F 2 "lib.pretty:SOT123-DIODE" H 3300 2400 60  0001 C CNN
F 3 "~" H 3300 2400 60  0000 C CNN
	1    3300 2400
	0    1    1    0   
$EndComp
Connection ~ 1900 2600
Connection ~ 2600 2600
Connection ~ 3300 2600
Connection ~ 2900 2200
Connection ~ 2200 2200
Connection ~ 1500 2200
Connection ~ 800  2200
$Comp
L SW S23
U 1 1 54F811AD
P 3800 2200
F 0 "S23" H 3800 2300 60  0000 C CNN
F 1 "SW" H 3800 2150 60  0000 C CNN
F 2 "lib.pretty:SW_SOCKET_COMBINED_T" H 3800 2200 60  0001 C CNN
F 3 "~" H 3800 2200 60  0000 C CNN
	1    3800 2200
	1    0    0    -1  
$EndComp
$Comp
L DIODE D23
U 1 1 54F811B3
P 4000 2400
F 0 "D23" H 4000 2500 40  0000 C CNN
F 1 "DIODE" H 4000 2300 40  0000 C CNN
F 2 "lib.pretty:SOT123-DIODE" H 4000 2400 60  0001 C CNN
F 3 "~" H 4000 2400 60  0000 C CNN
	1    4000 2400
	0    1    1    0   
$EndComp
$Comp
L SW S24
U 1 1 54F811B9
P 4500 2200
F 0 "S24" H 4500 2300 60  0000 C CNN
F 1 "SW" H 4500 2150 60  0000 C CNN
F 2 "lib.pretty:SW_SOCKET_COMBINED_T" H 4500 2200 60  0001 C CNN
F 3 "~" H 4500 2200 60  0000 C CNN
	1    4500 2200
	1    0    0    -1  
$EndComp
$Comp
L DIODE D24
U 1 1 54F811BF
P 4700 2400
F 0 "D24" H 4700 2500 40  0000 C CNN
F 1 "DIODE" H 4700 2300 40  0000 C CNN
F 2 "lib.pretty:SOT123-DIODE" H 4700 2400 60  0001 C CNN
F 3 "~" H 4700 2400 60  0000 C CNN
	1    4700 2400
	0    1    1    0   
$EndComp
$Comp
L SW S25
U 1 1 54F811C5
P 5200 2200
F 0 "S25" H 5200 2300 60  0000 C CNN
F 1 "SW" H 5200 2150 60  0000 C CNN
F 2 "lib.pretty:SW_SOCKET_COMBINED_T" H 5200 2200 60  0001 C CNN
F 3 "~" H 5200 2200 60  0000 C CNN
	1    5200 2200
	1    0    0    -1  
$EndComp
$Comp
L DIODE D25
U 1 1 54F811CB
P 5400 2400
F 0 "D25" H 5400 2500 40  0000 C CNN
F 1 "DIODE" H 5400 2300 40  0000 C CNN
F 2 "lib.pretty:SOT123-DIODE" H 5400 2400 60  0001 C CNN
F 3 "~" H 5400 2400 60  0000 C CNN
	1    5400 2400
	0    1    1    0   
$EndComp
$Comp
L SW S26
U 1 1 54F811D1
P 5900 2200
F 0 "S26" H 5900 2300 60  0000 C CNN
F 1 "SW" H 5900 2150 60  0000 C CNN
F 2 "lib.pretty:SW_SOCKET_COMBINED_T" H 5900 2200 60  0001 C CNN
F 3 "~" H 5900 2200 60  0000 C CNN
	1    5900 2200
	1    0    0    -1  
$EndComp
$Comp
L DIODE D26
U 1 1 54F811D7
P 6100 2400
F 0 "D26" H 6100 2500 40  0000 C CNN
F 1 "DIODE" H 6100 2300 40  0000 C CNN
F 2 "lib.pretty:SOT123-DIODE" H 6100 2400 60  0001 C CNN
F 3 "~" H 6100 2400 60  0000 C CNN
	1    6100 2400
	0    1    1    0   
$EndComp
Connection ~ 4700 2600
Connection ~ 5400 2600
Connection ~ 6100 2600
Connection ~ 5700 2200
Connection ~ 5000 2200
Connection ~ 4300 2200
Connection ~ 3600 2200
Connection ~ 4000 2600
$Comp
L SW S27
U 1 1 54F811E5
P 6600 2200
F 0 "S27" H 6600 2300 60  0000 C CNN
F 1 "SW" H 6600 2150 60  0000 C CNN
F 2 "lib.pretty:SW_SOCKET_COMBINED_T" H 6600 2200 60  0001 C CNN
F 3 "~" H 6600 2200 60  0000 C CNN
	1    6600 2200
	1    0    0    -1  
$EndComp
$Comp
L DIODE D27
U 1 1 54F811EB
P 6800 2400
F 0 "D27" H 6800 2500 40  0000 C CNN
F 1 "DIODE" H 6800 2300 40  0000 C CNN
F 2 "lib.pretty:SOT123-DIODE" H 6800 2400 60  0001 C CNN
F 3 "~" H 6800 2400 60  0000 C CNN
	1    6800 2400
	0    1    1    0   
$EndComp
Connection ~ 6800 2600
Connection ~ 6400 2200
$Comp
L SW S28
U 1 1 54F811F3
P 1000 2900
F 0 "S28" H 1000 3000 60  0000 C CNN
F 1 "SW" H 1000 2850 60  0000 C CNN
F 2 "lib.pretty:SW_SOCKET_COMBINED_T" H 1000 2900 60  0001 C CNN
F 3 "~" H 1000 2900 60  0000 C CNN
	1    1000 2900
	1    0    0    -1  
$EndComp
$Comp
L DIODE D28
U 1 1 54F811F9
P 1200 3100
F 0 "D28" H 1200 3200 40  0000 C CNN
F 1 "DIODE" H 1200 3000 40  0000 C CNN
F 2 "lib.pretty:SOT123-DIODE" H 1200 3100 60  0001 C CNN
F 3 "~" H 1200 3100 60  0000 C CNN
	1    1200 3100
	0    1    1    0   
$EndComp
$Comp
L SW S29
U 1 1 54F811FF
P 1700 2900
F 0 "S29" H 1700 3000 60  0000 C CNN
F 1 "SW" H 1700 2850 60  0000 C CNN
F 2 "lib.pretty:SW_SOCKET_COMBINED_T" H 1700 2900 60  0001 C CNN
F 3 "~" H 1700 2900 60  0000 C CNN
	1    1700 2900
	1    0    0    -1  
$EndComp
$Comp
L DIODE D29
U 1 1 54F81205
P 1900 3100
F 0 "D29" H 1900 3200 40  0000 C CNN
F 1 "DIODE" H 1900 3000 40  0000 C CNN
F 2 "lib.pretty:SOT123-DIODE" H 1900 3100 60  0001 C CNN
F 3 "~" H 1900 3100 60  0000 C CNN
	1    1900 3100
	0    1    1    0   
$EndComp
Connection ~ 1900 3300
Connection ~ 1500 2900
Connection ~ 800  2900
$Comp
L SW S32
U 1 1 54F8122B
P 3800 2900
F 0 "S32" H 3800 3000 60  0000 C CNN
F 1 "SW" H 3800 2850 60  0000 C CNN
F 2 "lib.pretty:SW_SOCKET_COMBINED_T" H 3800 2900 60  0001 C CNN
F 3 "~" H 3800 2900 60  0000 C CNN
	1    3800 2900
	1    0    0    -1  
$EndComp
$Comp
L DIODE D32
U 1 1 54F81231
P 4000 3100
F 0 "D32" H 4000 3200 40  0000 C CNN
F 1 "DIODE" H 4000 3000 40  0000 C CNN
F 2 "lib.pretty:SOT123-DIODE" H 4000 3100 60  0001 C CNN
F 3 "~" H 4000 3100 60  0000 C CNN
	1    4000 3100
	0    1    1    0   
$EndComp
$Comp
L SW S33
U 1 1 54F81237
P 4500 2900
F 0 "S33" H 4500 3000 60  0000 C CNN
F 1 "SW" H 4500 2850 60  0000 C CNN
F 2 "lib.pretty:SW_SOCKET_COMBINED_T" H 4500 2900 60  0001 C CNN
F 3 "~" H 4500 2900 60  0000 C CNN
	1    4500 2900
	1    0    0    -1  
$EndComp
$Comp
L DIODE D33
U 1 1 54F8123D
P 4700 3100
F 0 "D33" H 4700 3200 40  0000 C CNN
F 1 "DIODE" H 4700 3000 40  0000 C CNN
F 2 "lib.pretty:SOT123-DIODE" H 4700 3100 60  0001 C CNN
F 3 "~" H 4700 3100 60  0000 C CNN
	1    4700 3100
	0    1    1    0   
$EndComp
$Comp
L SW S34
U 1 1 54F81243
P 5200 2900
F 0 "S34" H 5200 3000 60  0000 C CNN
F 1 "SW" H 5200 2850 60  0000 C CNN
F 2 "lib.pretty:SW_SOCKET_COMBINED_T" H 5200 2900 60  0001 C CNN
F 3 "~" H 5200 2900 60  0000 C CNN
	1    5200 2900
	1    0    0    -1  
$EndComp
$Comp
L DIODE D34
U 1 1 54F81249
P 5400 3100
F 0 "D34" H 5400 3200 40  0000 C CNN
F 1 "DIODE" H 5400 3000 40  0000 C CNN
F 2 "lib.pretty:SOT123-DIODE" H 5400 3100 60  0001 C CNN
F 3 "~" H 5400 3100 60  0000 C CNN
	1    5400 3100
	0    1    1    0   
$EndComp
$Comp
L SW S35
U 1 1 54F8124F
P 5900 2900
F 0 "S35" H 5900 3000 60  0000 C CNN
F 1 "SW" H 5900 2850 60  0000 C CNN
F 2 "lib.pretty:SW_SOCKET_COMBINED_T" H 5900 2900 60  0001 C CNN
F 3 "~" H 5900 2900 60  0000 C CNN
	1    5900 2900
	1    0    0    -1  
$EndComp
$Comp
L DIODE D35
U 1 1 54F81255
P 6100 3100
F 0 "D35" H 6100 3200 40  0000 C CNN
F 1 "DIODE" H 6100 3000 40  0000 C CNN
F 2 "lib.pretty:SOT123-DIODE" H 6100 3100 60  0001 C CNN
F 3 "~" H 6100 3100 60  0000 C CNN
	1    6100 3100
	0    1    1    0   
$EndComp
Connection ~ 4700 3300
Connection ~ 5400 3300
Connection ~ 6100 3300
Connection ~ 5700 2900
Connection ~ 5000 2900
Connection ~ 4300 2900
Connection ~ 3600 2900
Connection ~ 4000 3300
$Comp
L SW S36
U 1 1 54F81263
P 6600 2900
F 0 "S36" H 6600 3000 60  0000 C CNN
F 1 "SW" H 6600 2850 60  0000 C CNN
F 2 "lib.pretty:SW_SOCKET_COMBINED_T" H 6600 2900 60  0001 C CNN
F 3 "~" H 6600 2900 60  0000 C CNN
	1    6600 2900
	1    0    0    -1  
$EndComp
$Comp
L DIODE D36
U 1 1 54F81269
P 6800 3100
F 0 "D36" H 6800 3200 40  0000 C CNN
F 1 "DIODE" H 6800 3000 40  0000 C CNN
F 2 "lib.pretty:SOT123-DIODE" H 6800 3100 60  0001 C CNN
F 3 "~" H 6800 3100 60  0000 C CNN
	1    6800 3100
	0    1    1    0   
$EndComp
Connection ~ 6800 3300
Connection ~ 6400 2900
$Comp
L SW S37
U 1 1 54F82D17
P 1000 3600
F 0 "S37" H 1000 3700 60  0000 C CNN
F 1 "SW" H 1000 3550 60  0000 C CNN
F 2 "lib.pretty:SW_SOCKET_COMBINED_T" H 1000 3600 60  0001 C CNN
F 3 "~" H 1000 3600 60  0000 C CNN
	1    1000 3600
	1    0    0    -1  
$EndComp
$Comp
L DIODE D37
U 1 1 54F82D1D
P 1200 3800
F 0 "D37" H 1200 3900 40  0000 C CNN
F 1 "DIODE" H 1200 3700 40  0000 C CNN
F 2 "lib.pretty:SOT123-DIODE" H 1200 3800 60  0001 C CNN
F 3 "~" H 1200 3800 60  0000 C CNN
	1    1200 3800
	0    1    1    0   
$EndComp
$Comp
L SW S38
U 1 1 54F82D23
P 1700 3600
F 0 "S38" H 1700 3700 60  0000 C CNN
F 1 "SW" H 1700 3550 60  0000 C CNN
F 2 "lib.pretty:SW_SOCKET_COMBINED_T" H 1700 3600 60  0001 C CNN
F 3 "~" H 1700 3600 60  0000 C CNN
	1    1700 3600
	1    0    0    -1  
$EndComp
$Comp
L DIODE D38
U 1 1 54F82D29
P 1900 3800
F 0 "D38" H 1900 3900 40  0000 C CNN
F 1 "DIODE" H 1900 3700 40  0000 C CNN
F 2 "lib.pretty:SOT123-DIODE" H 1900 3800 60  0001 C CNN
F 3 "~" H 1900 3800 60  0000 C CNN
	1    1900 3800
	0    1    1    0   
$EndComp
$Comp
L SW S39
U 1 1 54F82D2F
P 2400 3600
F 0 "S39" H 2400 3700 60  0000 C CNN
F 1 "SW" H 2400 3550 60  0000 C CNN
F 2 "lib.pretty:SW_SOCKET_COMBINED_T" H 2400 3600 60  0001 C CNN
F 3 "~" H 2400 3600 60  0000 C CNN
	1    2400 3600
	1    0    0    -1  
$EndComp
$Comp
L DIODE D39
U 1 1 54F82D35
P 2600 3800
F 0 "D39" H 2600 3900 40  0000 C CNN
F 1 "DIODE" H 2600 3700 40  0000 C CNN
F 2 "lib.pretty:SOT123-DIODE" H 2600 3800 60  0001 C CNN
F 3 "~" H 2600 3800 60  0000 C CNN
	1    2600 3800
	0    1    1    0   
$EndComp
$Comp
L SW S40
U 1 1 54F82D3B
P 3100 3600
F 0 "S40" H 3100 3700 60  0000 C CNN
F 1 "SW" H 3100 3550 60  0000 C CNN
F 2 "lib.pretty:SW_SOCKET_COMBINED_T" H 3100 3600 60  0001 C CNN
F 3 "~" H 3100 3600 60  0000 C CNN
	1    3100 3600
	1    0    0    -1  
$EndComp
$Comp
L DIODE D40
U 1 1 54F82D41
P 3300 3800
F 0 "D40" H 3300 3900 40  0000 C CNN
F 1 "DIODE" H 3300 3700 40  0000 C CNN
F 2 "lib.pretty:SOT123-DIODE" H 3300 3800 60  0001 C CNN
F 3 "~" H 3300 3800 60  0000 C CNN
	1    3300 3800
	0    1    1    0   
$EndComp
Connection ~ 1900 4000
Connection ~ 2600 4000
Connection ~ 3300 4000
Connection ~ 2900 3600
Connection ~ 2200 3600
Connection ~ 1500 3600
Connection ~ 800  3600
$Comp
L SW S41
U 1 1 54F82D4F
P 3800 3600
F 0 "S41" H 3800 3700 60  0000 C CNN
F 1 "SW" H 3800 3550 60  0000 C CNN
F 2 "lib.pretty:SW_SOCKET_COMBINED_T" H 3800 3600 60  0001 C CNN
F 3 "~" H 3800 3600 60  0000 C CNN
	1    3800 3600
	1    0    0    -1  
$EndComp
$Comp
L DIODE D41
U 1 1 54F82D55
P 4000 3800
F 0 "D41" H 4000 3900 40  0000 C CNN
F 1 "DIODE" H 4000 3700 40  0000 C CNN
F 2 "lib.pretty:SOT123-DIODE" H 4000 3800 60  0001 C CNN
F 3 "~" H 4000 3800 60  0000 C CNN
	1    4000 3800
	0    1    1    0   
$EndComp
$Comp
L SW S42
U 1 1 54F82D5B
P 4500 3600
F 0 "S42" H 4500 3700 60  0000 C CNN
F 1 "SW" H 4500 3550 60  0000 C CNN
F 2 "lib.pretty:SW_SOCKET_COMBINED_T" H 4500 3600 60  0001 C CNN
F 3 "~" H 4500 3600 60  0000 C CNN
	1    4500 3600
	1    0    0    -1  
$EndComp
$Comp
L DIODE D42
U 1 1 54F82D61
P 4700 3800
F 0 "D42" H 4700 3900 40  0000 C CNN
F 1 "DIODE" H 4700 3700 40  0000 C CNN
F 2 "lib.pretty:SOT123-DIODE" H 4700 3800 60  0001 C CNN
F 3 "~" H 4700 3800 60  0000 C CNN
	1    4700 3800
	0    1    1    0   
$EndComp
$Comp
L SW S43
U 1 1 54F82D67
P 5200 3600
F 0 "S43" H 5200 3700 60  0000 C CNN
F 1 "SW" H 5200 3550 60  0000 C CNN
F 2 "lib.pretty:SW_SOCKET_COMBINED_T" H 5200 3600 60  0001 C CNN
F 3 "~" H 5200 3600 60  0000 C CNN
	1    5200 3600
	1    0    0    -1  
$EndComp
$Comp
L DIODE D43
U 1 1 54F82D6D
P 5400 3800
F 0 "D43" H 5400 3900 40  0000 C CNN
F 1 "DIODE" H 5400 3700 40  0000 C CNN
F 2 "lib.pretty:SOT123-DIODE" H 5400 3800 60  0001 C CNN
F 3 "~" H 5400 3800 60  0000 C CNN
	1    5400 3800
	0    1    1    0   
$EndComp
$Comp
L SW S44
U 1 1 54F82D73
P 5900 3600
F 0 "S44" H 5900 3700 60  0000 C CNN
F 1 "SW" H 5900 3550 60  0000 C CNN
F 2 "lib.pretty:SW_SOCKET_COMBINED_T" H 5900 3600 60  0001 C CNN
F 3 "~" H 5900 3600 60  0000 C CNN
	1    5900 3600
	1    0    0    -1  
$EndComp
$Comp
L DIODE D44
U 1 1 54F82D79
P 6100 3800
F 0 "D44" H 6100 3900 40  0000 C CNN
F 1 "DIODE" H 6100 3700 40  0000 C CNN
F 2 "lib.pretty:SOT123-DIODE" H 6100 3800 60  0001 C CNN
F 3 "~" H 6100 3800 60  0000 C CNN
	1    6100 3800
	0    1    1    0   
$EndComp
Connection ~ 4700 4000
Connection ~ 5400 4000
Connection ~ 6100 4000
Connection ~ 5700 3600
Connection ~ 5000 3600
Connection ~ 4300 3600
Connection ~ 3600 3600
Connection ~ 4000 4000
$Comp
L SW S45
U 1 1 54F82D87
P 6600 3600
F 0 "S45" H 6600 3700 60  0000 C CNN
F 1 "SW" H 6600 3550 60  0000 C CNN
F 2 "lib.pretty:SW_SOCKET_COMBINED_T" H 6600 3600 60  0001 C CNN
F 3 "~" H 6600 3600 60  0000 C CNN
	1    6600 3600
	1    0    0    -1  
$EndComp
$Comp
L DIODE D45
U 1 1 54F82D8D
P 6800 3800
F 0 "D45" H 6800 3900 40  0000 C CNN
F 1 "DIODE" H 6800 3700 40  0000 C CNN
F 2 "lib.pretty:SOT123-DIODE" H 6800 3800 60  0001 C CNN
F 3 "~" H 6800 3800 60  0000 C CNN
	1    6800 3800
	0    1    1    0   
$EndComp
Connection ~ 6800 4000
Connection ~ 6400 3600
$Comp
L SW S47
U 1 1 54F82DA1
P 1700 4300
F 0 "S47" H 1700 4400 60  0000 C CNN
F 1 "SW" H 1700 4250 60  0000 C CNN
F 2 "lib.pretty:SW_SOCKET_COMBINED_T" H 1700 4300 60  0001 C CNN
F 3 "~" H 1700 4300 60  0000 C CNN
	1    1700 4300
	1    0    0    -1  
$EndComp
$Comp
L DIODE D47
U 1 1 54F82DA7
P 1900 4500
F 0 "D47" H 1900 4600 40  0000 C CNN
F 1 "DIODE" H 1900 4400 40  0000 C CNN
F 2 "lib.pretty:SOT123-DIODE" H 1900 4500 60  0001 C CNN
F 3 "~" H 1900 4500 60  0000 C CNN
	1    1900 4500
	0    1    1    0   
$EndComp
$Comp
L SW S48
U 1 1 54F82DAD
P 2400 4300
F 0 "S48" H 2400 4400 60  0000 C CNN
F 1 "SW" H 2400 4250 60  0000 C CNN
F 2 "lib.pretty:SW_SOCKET_COMBINED_T" H 2400 4300 60  0001 C CNN
F 3 "~" H 2400 4300 60  0000 C CNN
	1    2400 4300
	1    0    0    -1  
$EndComp
$Comp
L DIODE D48
U 1 1 54F82DB3
P 2600 4500
F 0 "D48" H 2600 4600 40  0000 C CNN
F 1 "DIODE" H 2600 4400 40  0000 C CNN
F 2 "lib.pretty:SOT123-DIODE" H 2600 4500 60  0001 C CNN
F 3 "~" H 2600 4500 60  0000 C CNN
	1    2600 4500
	0    1    1    0   
$EndComp
$Comp
L SW S49
U 1 1 54F82DB9
P 3100 4300
F 0 "S49" H 3100 4400 60  0000 C CNN
F 1 "SW" H 3100 4250 60  0000 C CNN
F 2 "lib.pretty:SW_SOCKET_COMBINED_T" H 3100 4300 60  0001 C CNN
F 3 "~" H 3100 4300 60  0000 C CNN
	1    3100 4300
	1    0    0    -1  
$EndComp
$Comp
L DIODE D49
U 1 1 54F82DBF
P 3300 4500
F 0 "D49" H 3300 4600 40  0000 C CNN
F 1 "DIODE" H 3300 4400 40  0000 C CNN
F 2 "lib.pretty:SOT123-DIODE" H 3300 4500 60  0001 C CNN
F 3 "~" H 3300 4500 60  0000 C CNN
	1    3300 4500
	0    1    1    0   
$EndComp
Connection ~ 2600 4700
Connection ~ 3300 4700
Connection ~ 2900 4300
Connection ~ 2200 4300
Connection ~ 1500 4300
$Comp
L SW S50
U 1 1 54F82DCD
P 3800 4300
F 0 "S50" H 3800 4400 60  0000 C CNN
F 1 "SW" H 3800 4250 60  0000 C CNN
F 2 "lib.pretty:SW_SOCKET_COMBINED_T" H 3800 4300 60  0001 C CNN
F 3 "~" H 3800 4300 60  0000 C CNN
	1    3800 4300
	1    0    0    -1  
$EndComp
$Comp
L DIODE D50
U 1 1 54F82DD3
P 4000 4500
F 0 "D50" H 4000 4600 40  0000 C CNN
F 1 "DIODE" H 4000 4400 40  0000 C CNN
F 2 "lib.pretty:SOT123-DIODE" H 4000 4500 60  0001 C CNN
F 3 "~" H 4000 4500 60  0000 C CNN
	1    4000 4500
	0    1    1    0   
$EndComp
$Comp
L SW S51
U 1 1 54F82DD9
P 4500 4300
F 0 "S51" H 4500 4400 60  0000 C CNN
F 1 "SW" H 4500 4250 60  0000 C CNN
F 2 "lib.pretty:SW_SOCKET_COMBINED_T" H 4500 4300 60  0001 C CNN
F 3 "~" H 4500 4300 60  0000 C CNN
	1    4500 4300
	1    0    0    -1  
$EndComp
$Comp
L DIODE D51
U 1 1 54F82DDF
P 4700 4500
F 0 "D51" H 4700 4600 40  0000 C CNN
F 1 "DIODE" H 4700 4400 40  0000 C CNN
F 2 "lib.pretty:SOT123-DIODE" H 4700 4500 60  0001 C CNN
F 3 "~" H 4700 4500 60  0000 C CNN
	1    4700 4500
	0    1    1    0   
$EndComp
$Comp
L SW S52
U 1 1 54F82DE5
P 5200 4300
F 0 "S52" H 5200 4400 60  0000 C CNN
F 1 "SW" H 5200 4250 60  0000 C CNN
F 2 "lib.pretty:SW_SOCKET_COMBINED_T" H 5200 4300 60  0001 C CNN
F 3 "~" H 5200 4300 60  0000 C CNN
	1    5200 4300
	1    0    0    -1  
$EndComp
$Comp
L DIODE D52
U 1 1 54F82DEB
P 5400 4500
F 0 "D52" H 5400 4600 40  0000 C CNN
F 1 "DIODE" H 5400 4400 40  0000 C CNN
F 2 "lib.pretty:SOT123-DIODE" H 5400 4500 60  0001 C CNN
F 3 "~" H 5400 4500 60  0000 C CNN
	1    5400 4500
	0    1    1    0   
$EndComp
$Comp
L SW S53
U 1 1 54F82DF1
P 5900 4300
F 0 "S53" H 5900 4400 60  0000 C CNN
F 1 "SW" H 5900 4250 60  0000 C CNN
F 2 "lib.pretty:SW_SOCKET_COMBINED_T" H 5900 4300 60  0001 C CNN
F 3 "~" H 5900 4300 60  0000 C CNN
	1    5900 4300
	1    0    0    -1  
$EndComp
$Comp
L DIODE D53
U 1 1 54F82DF7
P 6100 4500
F 0 "D53" H 6100 4600 40  0000 C CNN
F 1 "DIODE" H 6100 4400 40  0000 C CNN
F 2 "lib.pretty:SOT123-DIODE" H 6100 4500 60  0001 C CNN
F 3 "~" H 6100 4500 60  0000 C CNN
	1    6100 4500
	0    1    1    0   
$EndComp
Connection ~ 4700 4700
Connection ~ 5400 4700
Connection ~ 6100 4700
Connection ~ 5700 4300
Connection ~ 5000 4300
Connection ~ 4300 4300
Connection ~ 3600 4300
Connection ~ 4000 4700
$Comp
L SW S54
U 1 1 54F82E05
P 6600 4300
F 0 "S54" H 6600 4400 60  0000 C CNN
F 1 "SW" H 6600 4250 60  0000 C CNN
F 2 "lib.pretty:SW_SOCKET_COMBINED_T" H 6600 4300 60  0001 C CNN
F 3 "~" H 6600 4300 60  0000 C CNN
	1    6600 4300
	1    0    0    -1  
$EndComp
$Comp
L DIODE D54
U 1 1 54F82E0B
P 6800 4500
F 0 "D54" H 6800 4600 40  0000 C CNN
F 1 "DIODE" H 6800 4400 40  0000 C CNN
F 2 "lib.pretty:SOT123-DIODE" H 6800 4500 60  0001 C CNN
F 3 "~" H 6800 4500 60  0000 C CNN
	1    6800 4500
	0    1    1    0   
$EndComp
Connection ~ 6800 4700
Connection ~ 6400 4300
$Comp
L SW S55
U 1 1 54F82E13
P 1000 5000
F 0 "S55" H 1000 5100 60  0000 C CNN
F 1 "SW" H 1000 4950 60  0000 C CNN
F 2 "lib.pretty:SW_SOCKET_COMBINED_T" H 1000 5000 60  0001 C CNN
F 3 "~" H 1000 5000 60  0000 C CNN
	1    1000 5000
	1    0    0    -1  
$EndComp
$Comp
L DIODE D55
U 1 1 54F82E19
P 1200 5200
F 0 "D55" H 1200 5300 40  0000 C CNN
F 1 "DIODE" H 1200 5100 40  0000 C CNN
F 2 "lib.pretty:SOT123-DIODE" H 1200 5200 60  0001 C CNN
F 3 "~" H 1200 5200 60  0000 C CNN
	1    1200 5200
	0    1    1    0   
$EndComp
$Comp
L SW S56
U 1 1 54F82E1F
P 1700 5000
F 0 "S56" H 1700 5100 60  0000 C CNN
F 1 "SW" H 1700 4950 60  0000 C CNN
F 2 "lib.pretty:SW_SOCKET_COMBINED_T" H 1700 5000 60  0001 C CNN
F 3 "~" H 1700 5000 60  0000 C CNN
	1    1700 5000
	1    0    0    -1  
$EndComp
$Comp
L DIODE D56
U 1 1 54F82E25
P 1900 5200
F 0 "D56" H 1900 5300 40  0000 C CNN
F 1 "DIODE" H 1900 5100 40  0000 C CNN
F 2 "lib.pretty:SOT123-DIODE" H 1900 5200 60  0001 C CNN
F 3 "~" H 1900 5200 60  0000 C CNN
	1    1900 5200
	0    1    1    0   
$EndComp
$Comp
L SW S57
U 1 1 54F82E2B
P 2400 5000
F 0 "S57" H 2400 5100 60  0000 C CNN
F 1 "SW" H 2400 4950 60  0000 C CNN
F 2 "lib.pretty:SW_SOCKET_COMBINED_T" H 2400 5000 60  0001 C CNN
F 3 "~" H 2400 5000 60  0000 C CNN
	1    2400 5000
	1    0    0    -1  
$EndComp
$Comp
L DIODE D57
U 1 1 54F82E31
P 2600 5200
F 0 "D57" H 2600 5300 40  0000 C CNN
F 1 "DIODE" H 2600 5100 40  0000 C CNN
F 2 "lib.pretty:SOT123-DIODE" H 2600 5200 60  0001 C CNN
F 3 "~" H 2600 5200 60  0000 C CNN
	1    2600 5200
	0    1    1    0   
$EndComp
$Comp
L SW S58
U 1 1 54F82E37
P 3100 5000
F 0 "S58" H 3100 5100 60  0000 C CNN
F 1 "SW" H 3100 4950 60  0000 C CNN
F 2 "lib.pretty:SW_SOCKET_COMBINED_T" H 3100 5000 60  0001 C CNN
F 3 "~" H 3100 5000 60  0000 C CNN
	1    3100 5000
	1    0    0    -1  
$EndComp
$Comp
L DIODE D58
U 1 1 54F82E3D
P 3300 5200
F 0 "D58" H 3300 5300 40  0000 C CNN
F 1 "DIODE" H 3300 5100 40  0000 C CNN
F 2 "lib.pretty:SOT123-DIODE" H 3300 5200 60  0001 C CNN
F 3 "~" H 3300 5200 60  0000 C CNN
	1    3300 5200
	0    1    1    0   
$EndComp
Connection ~ 1900 5400
Connection ~ 2600 5400
Connection ~ 3300 5400
Connection ~ 2900 5000
Connection ~ 2200 5000
Connection ~ 1500 5000
Connection ~ 800  5000
$Comp
L SW S59
U 1 1 54F82E4B
P 3800 5000
F 0 "S59" H 3800 5100 60  0000 C CNN
F 1 "SW" H 3800 4950 60  0000 C CNN
F 2 "lib.pretty:SW_SOCKET_COMBINED_T" H 3800 5000 60  0001 C CNN
F 3 "~" H 3800 5000 60  0000 C CNN
	1    3800 5000
	1    0    0    -1  
$EndComp
$Comp
L DIODE D59
U 1 1 54F82E51
P 4000 5200
F 0 "D59" H 4000 5300 40  0000 C CNN
F 1 "DIODE" H 4000 5100 40  0000 C CNN
F 2 "lib.pretty:SOT123-DIODE" H 4000 5200 60  0001 C CNN
F 3 "~" H 4000 5200 60  0000 C CNN
	1    4000 5200
	0    1    1    0   
$EndComp
$Comp
L SW S62
U 1 1 54F82E6F
P 5900 5000
F 0 "S62" H 5900 5100 60  0000 C CNN
F 1 "SW" H 5900 4950 60  0000 C CNN
F 2 "lib.pretty:SW_SOCKET_COMBINED_T" H 5900 5000 60  0001 C CNN
F 3 "~" H 5900 5000 60  0000 C CNN
	1    5900 5000
	1    0    0    -1  
$EndComp
$Comp
L DIODE D62
U 1 1 54F82E75
P 6100 5200
F 0 "D62" H 6100 5300 40  0000 C CNN
F 1 "DIODE" H 6100 5100 40  0000 C CNN
F 2 "lib.pretty:SOT123-DIODE" H 6100 5200 60  0001 C CNN
F 3 "~" H 6100 5200 60  0000 C CNN
	1    6100 5200
	0    1    1    0   
$EndComp
Connection ~ 6100 5400
Connection ~ 5700 5000
Connection ~ 3600 5000
Connection ~ 4000 5400
$Comp
L SW S64
U 1 1 54F82E91
P 1000 5700
F 0 "S64" H 1000 5800 60  0000 C CNN
F 1 "SW" H 1000 5650 60  0000 C CNN
F 2 "lib.pretty:SW_SOCKET_COMBINED_T" H 1000 5700 60  0001 C CNN
F 3 "~" H 1000 5700 60  0000 C CNN
	1    1000 5700
	1    0    0    -1  
$EndComp
$Comp
L DIODE D64
U 1 1 54F82E97
P 1200 5900
F 0 "D64" H 1200 6000 40  0000 C CNN
F 1 "DIODE" H 1200 5800 40  0000 C CNN
F 2 "lib.pretty:SOT123-DIODE" H 1200 5900 60  0001 C CNN
F 3 "~" H 1200 5900 60  0000 C CNN
	1    1200 5900
	0    1    1    0   
$EndComp
$Comp
L SW S65
U 1 1 54F82E9D
P 1700 5700
F 0 "S65" H 1700 5800 60  0000 C CNN
F 1 "SW" H 1700 5650 60  0000 C CNN
F 2 "lib.pretty:SW_SOCKET_COMBINED_T" H 1700 5700 60  0001 C CNN
F 3 "~" H 1700 5700 60  0000 C CNN
	1    1700 5700
	1    0    0    -1  
$EndComp
$Comp
L DIODE D65
U 1 1 54F82EA3
P 1900 5900
F 0 "D65" H 1900 6000 40  0000 C CNN
F 1 "DIODE" H 1900 5800 40  0000 C CNN
F 2 "lib.pretty:SOT123-DIODE" H 1900 5900 60  0001 C CNN
F 3 "~" H 1900 5900 60  0000 C CNN
	1    1900 5900
	0    1    1    0   
$EndComp
$Comp
L SW S66
U 1 1 54F82EA9
P 2400 5700
F 0 "S66" H 2400 5800 60  0000 C CNN
F 1 "SW" H 2400 5650 60  0000 C CNN
F 2 "lib.pretty:SW_SOCKET_COMBINED_T" H 2400 5700 60  0001 C CNN
F 3 "~" H 2400 5700 60  0000 C CNN
	1    2400 5700
	1    0    0    -1  
$EndComp
$Comp
L DIODE D66
U 1 1 54F82EAF
P 2600 5900
F 0 "D66" H 2600 6000 40  0000 C CNN
F 1 "DIODE" H 2600 5800 40  0000 C CNN
F 2 "lib.pretty:SOT123-DIODE" H 2600 5900 60  0001 C CNN
F 3 "~" H 2600 5900 60  0000 C CNN
	1    2600 5900
	0    1    1    0   
$EndComp
$Comp
L SW S67
U 1 1 54F82EB5
P 3100 5700
F 0 "S67" H 3100 5800 60  0000 C CNN
F 1 "SW" H 3100 5650 60  0000 C CNN
F 2 "lib.pretty:SW_SOCKET_COMBINED_T" H 3100 5700 60  0001 C CNN
F 3 "~" H 3100 5700 60  0000 C CNN
	1    3100 5700
	1    0    0    -1  
$EndComp
$Comp
L DIODE D67
U 1 1 54F82EBB
P 3300 5900
F 0 "D67" H 3300 6000 40  0000 C CNN
F 1 "DIODE" H 3300 5800 40  0000 C CNN
F 2 "lib.pretty:SOT123-DIODE" H 3300 5900 60  0001 C CNN
F 3 "~" H 3300 5900 60  0000 C CNN
	1    3300 5900
	0    1    1    0   
$EndComp
Connection ~ 1900 6100
Connection ~ 2600 6100
Connection ~ 3300 6100
Connection ~ 2900 5700
Connection ~ 2200 5700
Connection ~ 1500 5700
Connection ~ 800  5700
$Comp
L SW S69
U 1 1 54F82ED5
P 4500 5700
F 0 "S69" H 4500 5800 60  0000 C CNN
F 1 "SW" H 4500 5650 60  0000 C CNN
F 2 "lib.pretty:SW_SOCKET_COMBINED_T" H 4500 5700 60  0001 C CNN
F 3 "~" H 4500 5700 60  0000 C CNN
	1    4500 5700
	1    0    0    -1  
$EndComp
$Comp
L DIODE D69
U 1 1 54F82EDB
P 4700 5900
F 0 "D69" H 4700 6000 40  0000 C CNN
F 1 "DIODE" H 4700 5800 40  0000 C CNN
F 2 "lib.pretty:SOT123-DIODE" H 4700 5900 60  0001 C CNN
F 3 "~" H 4700 5900 60  0000 C CNN
	1    4700 5900
	0    1    1    0   
$EndComp
$Comp
L SW S70
U 1 1 54F82EE1
P 5200 5700
F 0 "S70" H 5200 5800 60  0000 C CNN
F 1 "SW" H 5200 5650 60  0000 C CNN
F 2 "lib.pretty:SW_SOCKET_COMBINED_T" H 5200 5700 60  0001 C CNN
F 3 "~" H 5200 5700 60  0000 C CNN
	1    5200 5700
	1    0    0    -1  
$EndComp
$Comp
L DIODE D70
U 1 1 54F82EE7
P 5400 5900
F 0 "D70" H 5400 6000 40  0000 C CNN
F 1 "DIODE" H 5400 5800 40  0000 C CNN
F 2 "lib.pretty:SOT123-DIODE" H 5400 5900 60  0001 C CNN
F 3 "~" H 5400 5900 60  0000 C CNN
	1    5400 5900
	0    1    1    0   
$EndComp
Connection ~ 4700 6100
Connection ~ 5400 6100
Connection ~ 5000 5700
Connection ~ 4300 5700
$Comp
L SW S5
U 1 1 54F80207
P 3800 800
F 0 "S5" H 3800 900 60  0000 C CNN
F 1 "SW" H 3800 750 60  0000 C CNN
F 2 "lib.pretty:SW_SOCKET_COMBINED_T" H 3800 800 60  0001 C CNN
F 3 "~" H 3800 800 60  0000 C CNN
	1    3800 800 
	1    0    0    -1  
$EndComp
$Comp
L SW S7
U 1 1 54F8021F
P 5200 800
F 0 "S7" H 5200 900 60  0000 C CNN
F 1 "SW" H 5200 750 60  0000 C CNN
F 2 "lib.pretty:SW_SOCKET_COMBINED_T" H 5200 800 60  0001 C CNN
F 3 "~" H 5200 800 60  0000 C CNN
	1    5200 800 
	1    0    0    -1  
$EndComp
Wire Wire Line
	1200 1200 7500 1200
Wire Wire Line
	1200 1900 7500 1900
Wire Wire Line
	1200 3300 7500 3300
Wire Wire Line
	1200 2600 7500 2600
Wire Wire Line
	1200 4000 7500 4000
Wire Wire Line
	1900 4700 7500 4700
Wire Wire Line
	1200 5400 7500 5400
Wire Wire Line
	1200 6100 7450 6100
Wire Wire Line
	800  800  800  6600
Wire Wire Line
	1500 800  1500 6600
Wire Wire Line
	2200 800  2200 6600
Wire Wire Line
	2900 800  2900 6600
Wire Wire Line
	3600 800  3600 6600
Wire Wire Line
	4300 800  4300 6600
Wire Wire Line
	5000 800  5000 6600
Wire Wire Line
	5700 800  5700 6600
Wire Wire Line
	6400 800  6400 6600
Text Label 800  6600 0    60   ~ 0
Col1
Text Label 1500 6600 0    60   ~ 0
Col2
Text Label 2200 6600 0    60   ~ 0
Col3
Text Label 2900 6600 0    60   ~ 0
Col4
Text Label 3600 6600 0    60   ~ 0
Col5
Text Label 4300 6600 0    60   ~ 0
Col6
Text Label 5000 6600 0    60   ~ 0
Col7
Text Label 5700 6600 0    60   ~ 0
Col8
Text Label 6400 6600 0    60   ~ 0
Col9
Text Label 7500 1200 0    60   ~ 0
Row1
Text Label 7500 1900 0    60   ~ 0
Row2
Text Label 7500 2600 0    60   ~ 0
Row3
Text Label 7500 3300 0    60   ~ 0
Row4
Text Label 7500 4000 0    60   ~ 0
Row5
Text Label 7500 4700 0    60   ~ 0
Row6
Text Label 7500 5400 0    60   ~ 0
Row7
Text Label 7450 6100 0    60   ~ 0
Row8
$Comp
L SW S63
U 1 1 54F9A6D4
P 6600 5000
F 0 "S63" H 6600 5100 60  0000 C CNN
F 1 "SW" H 6600 4950 60  0000 C CNN
F 2 "lib.pretty:SW_SOCKET_COMBINED_T" H 6600 5000 60  0001 C CNN
F 3 "~" H 6600 5000 60  0000 C CNN
	1    6600 5000
	1    0    0    -1  
$EndComp
$Comp
L DIODE D63
U 1 1 54F9A6DA
P 6800 5200
F 0 "D63" H 6800 5300 40  0000 C CNN
F 1 "DIODE" H 6800 5100 40  0000 C CNN
F 2 "lib.pretty:SOT123-DIODE" H 6800 5200 60  0001 C CNN
F 3 "~" H 6800 5200 60  0000 C CNN
	1    6800 5200
	0    1    1    0   
$EndComp
Connection ~ 6400 5000
Connection ~ 6800 5400
Text Label 8400 7950 2    60   ~ 0
Row6
Text Label 8400 8050 2    60   ~ 0
Row7
Text Label 8400 8150 2    60   ~ 0
Row8
Text Notes 700  7150 0    118  ~ 0
Note: Extra duplicated switches are invisible overlaps in the matrix.
NoConn ~ 9550 10200
NoConn ~ 9550 10100
NoConn ~ 9550 10000
NoConn ~ 9550 9900
NoConn ~ 8400 8650
NoConn ~ 8400 8450
NoConn ~ 8400 8350
NoConn ~ 8400 8250
NoConn ~ 8400 8550
NoConn ~ 9550 9800
$Comp
L drill H1
U 1 1 57EBFD90
P 900 8850
F 0 "H1" H 900 8750 60  0000 C CNN
F 1 "drill" H 900 8950 60  0000 C CNN
F 2 "lib.pretty:5mm_drill" H 900 8850 60  0001 C CNN
F 3 "" H 900 8850 60  0001 C CNN
	1    900  8850
	1    0    0    -1  
$EndComp
$Comp
L drill H2
U 1 1 57EC7A24
P 900 9200
F 0 "H2" H 900 9100 60  0000 C CNN
F 1 "drill" H 900 9300 60  0000 C CNN
F 2 "lib.pretty:5mm_drill" H 900 9200 60  0001 C CNN
F 3 "" H 900 9200 60  0001 C CNN
	1    900  9200
	1    0    0    -1  
$EndComp
$Comp
L drill H3
U 1 1 57EC7F6A
P 900 9550
F 0 "H3" H 900 9450 60  0000 C CNN
F 1 "drill" H 900 9650 60  0000 C CNN
F 2 "lib.pretty:5mm_drill" H 900 9550 60  0001 C CNN
F 3 "" H 900 9550 60  0001 C CNN
	1    900  9550
	1    0    0    -1  
$EndComp
$Comp
L drill H4
U 1 1 57EC7F70
P 900 9900
F 0 "H4" H 900 9800 60  0000 C CNN
F 1 "drill" H 900 10000 60  0000 C CNN
F 2 "lib.pretty:5mm_drill" H 900 9900 60  0001 C CNN
F 3 "" H 900 9900 60  0001 C CNN
	1    900  9900
	1    0    0    -1  
$EndComp
Text Notes 750  8600 0    60   ~ 0
Not connectred drills with pads to fit ducky mini
Wire Wire Line
	9550 7700 10500 7700
Wire Wire Line
	9550 7800 10500 7800
Wire Wire Line
	9550 7900 10500 7900
Wire Wire Line
	9550 8000 10500 8000
Wire Wire Line
	10500 8100 9550 8100
Wire Wire Line
	9550 8200 10500 8200
Wire Wire Line
	10500 8300 9550 8300
Wire Wire Line
	9550 8400 10500 8400
Wire Wire Line
	10500 8550 9550 8550
$Sheet
S 8400 6200 1150 4050
U 549878F0
F0 "mcu" 50
F1 "mcu.sch" 50
F2 "PTA4" T L 8400 6250 60 
F3 "PTB2" T L 8400 6550 60 
F4 "PTB3" T L 8400 6650 60 
F5 "PTC0" T L 8400 6950 60 
F6 "ADC0_DP0" T R 9550 9800 60 
F7 "ADC0_DM0" T R 9550 9900 60 
F8 "GND" B R 9550 10200 60 
F9 "PTA12" T L 8400 6350 60 
F10 "PTA13" T L 8400 6450 60 
F11 "ADC1_DP0" T R 9550 10000 60 
F12 "ADC1_DM0" T R 9550 10100 60 
F13 "PTB19" T L 8400 6850 60 
F14 "PTB18" T L 8400 6750 60 
F15 "PTC11" T L 8400 7350 60 
F16 "PTC9" T L 8400 7150 60 
F17 "PTC10" T L 8400 7250 60 
F18 "PTD0" T L 8400 7450 60 
F19 "PTD1" T L 8400 7550 60 
F20 "PTD4" T L 8400 7650 60 
F21 "PTD5" T L 8400 7750 60 
F22 "PTD6" T L 8400 7850 60 
F23 "PTD7" T L 8400 7950 60 
F24 "PTC1" T L 8400 8050 60 
F25 "PTC2" T L 8400 8150 60 
F26 "PTC3" T L 8400 8250 60 
F27 "PTC7" T L 8400 8650 60 
F28 "PTC6" T L 8400 8550 60 
F29 "PTC5" T L 8400 8450 60 
F30 "PTC4" T L 8400 8350 60 
F31 "PTC8" T L 8400 7050 60 
F32 "SW1" I R 9550 9650 60 
F33 "SW2" I R 9550 9550 60 
F34 "SW3" I R 9550 9450 60 
F35 "SW4" I R 9550 9350 60 
F36 "SW5" I R 9550 9250 60 
F37 "SW6" I R 9550 9150 60 
F38 "SW7" I R 9550 9050 60 
F39 "SW8" I R 9550 8950 60 
F40 "SW9" I R 9550 8850 60 
F41 "SW10" I R 9550 8750 60 
F42 "SW11" I R 9550 8650 60 
F43 "SW12" I R 9550 8550 60 
F44 "CS1" I R 9550 8400 60 
F45 "CS2" I R 9550 8300 60 
F46 "CS3" I R 9550 8200 60 
F47 "CS4" I R 9550 8100 60 
F48 "CS5" I R 9550 8000 60 
F49 "CS6" I R 9550 7900 60 
F50 "CS7" I R 9550 7800 60 
F51 "CS8" I R 9550 7700 60 
F52 "CS9" I R 9550 7600 60 
F53 "CS10" I R 9550 7500 60 
F54 "CS11" I R 9550 7400 60 
F55 "CS12" I R 9550 7300 60 
F56 "CS13" I R 9550 7200 60 
F57 "CS14" I R 9550 7100 60 
F58 "CS15" I R 9550 7000 60 
F59 "CS16" I R 9550 6900 60 
$EndSheet
$Sheet
S 10500 6750 550  3000
U 54B2C0DD
F0 "ledmatrix" 50
F1 "ledmatrix.sch" 50
F2 "SW12" B L 10500 8550 60 
F3 "SW11" B L 10500 8650 60 
F4 "SW10" B L 10500 8750 60 
F5 "SW9" B L 10500 8850 60 
F6 "SW8" B L 10500 8950 60 
F7 "SW7" B L 10500 9050 60 
F8 "SW6" B L 10500 9150 60 
F9 "SW5" B L 10500 9250 60 
F10 "SW4" B L 10500 9350 60 
F11 "SW3" B L 10500 9450 60 
F12 "SW2" B L 10500 9550 60 
F13 "SW1" B L 10500 9650 60 
F14 "CS1" B L 10500 8400 60 
F15 "CS2" B L 10500 8300 60 
F16 "CS3" B L 10500 8200 60 
F17 "CS4" B L 10500 8100 60 
F18 "CS5" B L 10500 8000 60 
F19 "CS7" B L 10500 7800 60 
F20 "CS8" B L 10500 7700 60 
F21 "CS9" B L 10500 7600 60 
F22 "CS10" B L 10500 7500 60 
F23 "CS11" B L 10500 7400 60 
F24 "CS12" B L 10500 7300 60 
F25 "CS13" B L 10500 7200 60 
F26 "CS14" B L 10500 7100 60 
F27 "CS15" B L 10500 7000 60 
F28 "CS16" B L 10500 6900 60 
F29 "CS6" B L 10500 7900 60 
$EndSheet
Wire Wire Line
	9550 8650 10500 8650
Wire Wire Line
	9550 8750 10500 8750
Wire Wire Line
	9550 8850 10500 8850
Wire Wire Line
	9550 8950 10500 8950
Wire Wire Line
	9550 9050 10500 9050
Wire Wire Line
	10500 9150 9550 9150
Wire Wire Line
	9550 9250 10500 9250
Wire Wire Line
	10500 9350 9550 9350
Wire Wire Line
	9550 9450 10500 9450
Wire Wire Line
	10500 9550 9550 9550
Wire Wire Line
	9550 9650 10500 9650
NoConn ~ 1000 9900
NoConn ~ 1000 9550
NoConn ~ 1000 9200
NoConn ~ 1000 8850
$EndSCHEMATC
