(module MX_HIDDEN (layer F.Cu) (tedit 5807CD94)
  (descr MXALPS)
  (tags MXALPS)
  (fp_text reference S167 (at 0 -2.54) (layer B.SilkS) hide
    (effects (font (size 1 1) (thickness 0.2)) (justify mirror))
  )
  (fp_text value SW (at -3.5 9) (layer B.SilkS) hide
    (effects (font (thickness 0.3048)) (justify mirror))
  )
  (fp_line (start -7 7) (end -7 -7) (layer F.SilkS) (width 0.15))
  (fp_line (start 7 7) (end -7 7) (layer F.SilkS) (width 0.15))
  (fp_line (start 7 -7) (end 7 7) (layer F.SilkS) (width 0.15))
  (fp_line (start -7 -7) (end 7 -7) (layer F.SilkS) (width 0.15))
  (pad "" np_thru_hole circle (at 0 0) (size 3.99034 3.99034) (drill 3.9878) (layers *.Cu *.Mask F.SilkS))
  (pad 2 thru_hole circle (at 2.54 -5.08) (size 2.49936 2.49936) (drill 1.50114) (layers *.Cu *.Mask F.SilkS))
  (pad 1 thru_hole circle (at -3.81 -2.54) (size 2.49936 2.49936) (drill 1.50114) (layers *.Cu *.Mask F.SilkS))
  (pad "" np_thru_hole circle (at -5.08 0) (size 1.70434 1.70434) (drill 1.7018) (layers *.Cu *.Mask F.SilkS))
  (pad "" np_thru_hole circle (at 5.08 0) (size 1.70434 1.70434) (drill 1.7018) (layers *.Cu *.Mask F.SilkS))
  (model ${KIPRJMOD}/3d/cherrymx.x3d
    (at (xyz 0 0 0.59))
    (scale (xyz 1 1 1))
    (rotate (xyz 270 0 0))
  )
)
