(module MXALPS-hidden (layer F.Cu) (tedit 580F61A0)
  (descr MXALPS)
  (tags MXALPS)
  (fp_text reference S59 (at 0 3.048) (layer B.SilkS)
    (effects (font (thickness 0.3048)) (justify mirror))
  )
  (fp_text value SW (at -3.5 9) (layer B.SilkS) hide
    (effects (font (thickness 0.3048)) (justify mirror))
  )
  (pad "" np_thru_hole circle (at 0 0) (size 3.98781 3.98781) (drill 3.9878) (layers *.Cu *.Mask F.SilkS)
    (clearance 0.1524))
  (pad "" np_thru_hole circle (at -5.08 0) (size 1.70181 1.70181) (drill 1.7018) (layers *.Cu *.Mask F.SilkS)
    (clearance 0.1524))
  (pad "" np_thru_hole circle (at 5.08 0) (size 1.70181 1.70181) (drill 1.7018) (layers *.Cu *.Mask F.SilkS)
    (clearance 0.1524))
  (pad 1 thru_hole oval (at -3.405 -3.27 330.95) (size 2.5 4.17) (drill oval 1.5 3.17) (layers *.Cu *.Mask F.SilkS))
  (pad 2 thru_hole oval (at 2.52 -4.79 356.1) (size 2.5 3.08) (drill oval 1.5 2.08) (layers *.Cu *.Mask F.SilkS))
  (model ${KIPRJMOD}/3d/cherrymx.x3d
    (at (xyz 0 0 0.59))
    (scale (xyz 1 1 1))
    (rotate (xyz 270 0 0))
  )
)
